\relax 
\providecommand\hyper@newdestlabel[2]{}
\providecommand\HyperFirstAtBeginDocument{\AtBeginDocument}
\HyperFirstAtBeginDocument{\ifx\hyper@anchor\@undefined
\global\let\oldcontentsline\contentsline
\gdef\contentsline#1#2#3#4{\oldcontentsline{#1}{#2}{#3}}
\global\let\oldnewlabel\newlabel
\gdef\newlabel#1#2{\newlabelxx{#1}#2}
\gdef\newlabelxx#1#2#3#4#5#6{\oldnewlabel{#1}{{#2}{#3}}}
\AtEndDocument{\ifx\hyper@anchor\@undefined
\let\contentsline\oldcontentsline
\let\newlabel\oldnewlabel
\fi}
\fi}
\global\let\hyper@last\relax 
\gdef\HyperFirstAtBeginDocument#1{#1}
\providecommand\HyField@AuxAddToFields[1]{}
\providecommand\HyField@AuxAddToCoFields[2]{}
\@input{FrontBackMatter/Titlepage.aux}
\reset@newl@bel
\select@language{american}
\@writefile{toc}{\select@language{american}}
\@writefile{lof}{\select@language{american}}
\@writefile{lot}{\select@language{american}}
\providecommand\mph@setcol[2]{}
\@writefile{toc}{\vspace {-\cftbeforepartskip }}
\@writefile{lof}{\deactivateaddvspace  }
\@writefile{lot}{\deactivateaddvspace  }
\@writefile{lol}{\deactivateaddvspace  }
\select@language{american}
\@writefile{toc}{\select@language{american}}
\@writefile{lof}{\select@language{american}}
\@writefile{lot}{\select@language{american}}
\mph@setcol{ii:ii}{\mph@nr}
\@input{FrontBackMatter/Declaration.aux}
\mph@setcol{ii:iv}{\mph@nr}
\@input{FrontBackMatter/Abstract.aux}
\@input{FrontBackMatter/Dedication.aux}
\mph@setcol{ii:viii}{\mph@nr}
\@input{FrontBackMatter/Acknowledgments.aux}
\mph@setcol{ii:x}{\mph@nr}
\@input{FrontBackMatter/Contents.aux}
\mph@setcol{ii:xviii}{\mph@nr}
\@writefile{toc}{\contentsline {part}{1\hspace  {1em}\spacedlowsmallcaps  {Introduction}}{1}{part.1}}
\mph@setcol{ii:1}{\mph@nr}
\@input{Chapters/Chapter01.aux}
\@writefile{toc}{\contentsline {part}{2\hspace  {1em}\spacedlowsmallcaps  {Background}}{7}{part.2}}
\mph@setcol{ii:7}{\mph@nr}
\@input{Chapters/Chapter02.aux}
\@writefile{toc}{\contentsline {part}{3\hspace  {1em}\spacedlowsmallcaps  {Mapping with Multi-Support Kernels}}{33}{part.3}}
\mph@setcol{ii:33}{\mph@nr}
\@input{Chapters/Chapter03.aux}
\@writefile{toc}{\contentsline {part}{4\hspace  {1em}\spacedlowsmallcaps  {Experiments}}{57}{part.4}}
\mph@setcol{ii:57}{\mph@nr}
\@input{Chapters/Chapter04.aux}
\@writefile{toc}{\contentsline {part}{5\hspace  {1em}\spacedlowsmallcaps  {Conclusions}}{77}{part.5}}
\mph@setcol{ii:77}{\mph@nr}
\@input{Chapters/Chapter05.aux}
\mph@setcol{ii:82}{\mph@nr}
\@input{FrontBackMatter/Bibliography.aux}
\@input{FrontBackMatter/Colophon.aux}
\gdef\mph@lastpage{90}
\csname mph@do@warn\endcsname
