\relax 
\select@language{english}
\@writefile{toc}{\select@language{english}}
\@writefile{lof}{\select@language{english}}
\@writefile{lot}{\select@language{english}}
\@writefile{lof}{\contentsline {figure}{\numberline {1}{\ignorespaces Conventional DEM. In Ishigami \textit  {et al.}, 2013.\relax }}{2}}
\providecommand*\caption@xref[2]{\@setref\relax\@undefined{#1}}
\newlabel{dem}{{1}{2}}
\@writefile{lof}{\contentsline {figure}{\numberline {2}{\ignorespaces An intuitive visual representation of GPs, taken from Rasmunssen and Williams, 2006. Panel (a) shows four samples drawn from the prior distribution. Panel (b) shows the situation after two data points have been observed. The solid line represents the mean function. Dashed lines represent other functions in the distribution, randomly chosen. In both plots the shaded region denotes twice the standard deviation at each input value x.\relax }}{3}}
\newlabel{gp}{{2}{3}}
\@writefile{lof}{\contentsline {figure}{\numberline {3}{\ignorespaces Visual representation of the kernels obtained by Lang \textit  {et al.} (2004). To the left, an artificial terrain with a sharp edge. To the right, the shape of the kernels in the region.\relax }}{5}}
\newlabel{lang}{{3}{5}}
\@writefile{lof}{\contentsline {figure}{\numberline {4}{\ignorespaces The robots available in ACFR. Figure (a) shows a standard Clearpath Robotics Husky with no sensors attached (taken from ROS website). Figure (b) shows the Mantis and the Shrimp, two ground robots carrying a cutting-edge payload of sensors (cameras, lasers, radar) and able to log huge amounts of data (~500 GB/hour or 150MB/sec) (taken from ACFR website).\relax }}{9}}
\newlabel{segs}{{4}{9}}
\bibcite{book1}{\textbf  {MacKay, 2003}}
\bibcite{paper0}{\textbf  {Paciorek and Schervish, 2004}}
\bibcite{book2}{\textbf  {Rasmunssen and Williams, 2006}}
\bibcite{paper1}{\textbf  {Lang \textit  {et al.}, 2007}}
\bibcite{paper2}{\textbf  {Vasudevan \textit  {et al.}, 2009}}
\bibcite{report}{\textbf  {DNPM, 2011}}
\bibcite{thesis}{\textbf  {O'Callahan, 2012}}
\bibcite{magazine}{\textbf  {Mining IQ, 2013}}
\bibcite{paper4}{\textbf  {Ishigami \textit  {et al.}, 2013}}
\@writefile{lof}{\contentsline {figure}{\numberline {5}{\ignorespaces Picture of the Mars Yard and one of the ACFR rovers used therein by students for robotics research (taken from the Mars Yard website). \relax }}{10}}
\newlabel{mars}{{5}{10}}
\newlabel{LastPage}{{}{10}}
\xdef\lastpage@lastpage{10}
\gdef\lastpage@lastpageHy{}
