\relax 
\providecommand\hyper@newdestlabel[2]{}
\bibstyle{plainnat}
\bibdata{Bibliography}
\newlabel{app:bibliography}{{5}{83}{}{chapter.5.2}{}}
\@writefile{toc}{\vspace {\beforebibskip }}
\@writefile{toc}{\contentsline {part}{\spacedlowsmallcaps  {Bibliography}}{83}{dummy.8}}
\mph@setcol{ii:83}{\mph@nr}
\bibcite{besselref}{{1}{1965}{{Abramowitz and Stegun}}{{}}}
\bibcite{DEM}{{2}{1989}{{Bares et~al.}}{{Bares, Hebert, Kanade, Krotkov, Mitchell, Simmons, and Whittaker}}}
\bibcite{bfgs1}{{3}{1970}{{Broyden}}{{}}}
\bibcite{carlin}{{4}{1999}{{Carlin et~al.}}{{Carlin, Xia, Devine, Tolbert, and Mulholland}}}
\bibcite{ann2}{{5}{1985}{{{\v C}ern{\'y}}}{{}}}
\bibcite{elfes}{{6}{1989}{{Elfes}}{{}}}
\bibcite{bfgs2}{{7}{1970}{{Fletcher}}{{}}}
\bibcite{support}{{8}{2001}{{Gelfand et~al.}}{{Gelfand, Zhu, and Carlin}}}
\bibcite{kernelclasses}{{9}{2002}{{Genton}}{{}}}
\mph@setcol{ii:84}{\mph@nr}
\bibcite{bfgs3}{{10}{1970}{{Goldfarb}}{{}}}
\bibcite{hastie}{{11}{1990}{{Hastie and Tibshirani}}{{}}}
\bibcite{kernelml}{{12}{2008}{{Hofmann et~al.}}{{Hofmann, Sch{\"o}lkopf, and Smola}}}
\bibcite{horn}{{13}{1993}{{Hornik}}{{}}}
\bibcite{ann1}{{14}{1983}{{Kirkpatrick et~al.}}{{Kirkpatrick, Gelatt, and Vecchi}}}
\bibcite{mackay}{{15}{2003}{{MacKay}}{{}}}
\bibcite{moravek}{{16}{1988}{{Moravek}}{{}}}
\bibcite{moravekelfes}{{17}{1985}{{Moravek and Elfes}}{{}}}
\bibcite{scholk2013}{{18}{2013}{{Muandet and Sch{\"o}lkopf}}{{}}}
\bibcite{neal}{{19}{1996}{{Neal}}{{}}}
\bibcite{simonthesis}{{20}{2012}{{O'Callaghan}}{{}}}
\bibcite{simonaaai}{{21}{2011}{{O'Callaghan and Ramos}}{{}}}
\mph@setcol{ii:85}{\mph@nr}
\bibcite{gpml}{{22}{2006}{{Rasmussen and Williams}}{{}}}
\bibcite{reidthesis}{{23}{2011}{{Reid}}{{}}}
\bibcite{kernels}{{24}{2002}{{Sch{\"o}lkopf and Smola}}{{}}}
\bibcite{kpca}{{25}{1999}{{Sch{\"o}lkopf et~al.}}{{Sch{\"o}lkopf, Smola, and M{\"u}ller}}}
\bibcite{bfgs4}{{26}{1970}{{Shanno}}{{}}}
\bibcite{stachniss}{{27}{}{{Stachniss}}{{}}}
\bibcite{stein}{{28}{1999}{{Stein}}{{}}}
\bibcite{mapsurv}{{29}{2003{a}}{{Thrun}}{{}}}
\bibcite{thrun-occ}{{30}{2003{b}}{{Thrun}}{{}}}
\bibcite{probrob}{{31}{2005}{{Thrun et~al.}}{{Thrun, Burgard, and Fox}}}
\mph@setcol{ii:86}{\mph@nr}
\bibcite{will}{{32}{1998}{{Williams}}{{}}}
\mph@setcol{ii:87}{\mph@nr}
\mph@setcol{ii:88}{\mph@nr}
\@setckpt{FrontBackMatter/Bibliography}{
\setcounter{page}{89}
\setcounter{equation}{0}
\setcounter{enumi}{2}
\setcounter{enumii}{0}
\setcounter{enumiii}{0}
\setcounter{enumiv}{0}
\setcounter{footnote}{0}
\setcounter{mpfootnote}{0}
\setcounter{part}{5}
\setcounter{chapter}{2}
\setcounter{section}{0}
\setcounter{subsection}{0}
\setcounter{subsubsection}{0}
\setcounter{paragraph}{0}
\setcounter{subparagraph}{0}
\setcounter{figure}{0}
\setcounter{table}{0}
\setcounter{dummy}{8}
\setcounter{lips@count}{0}
\setcounter{NAT@ctr}{32}
\setcounter{parentequation}{0}
\setcounter{ContinuedFloat}{0}
\setcounter{KVtest}{0}
\setcounter{subfigure}{0}
\setcounter{subfigure@save}{6}
\setcounter{lofdepth}{1}
\setcounter{subtable}{0}
\setcounter{subtable@save}{0}
\setcounter{lotdepth}{1}
\setcounter{lstnumber}{14}
\setcounter{Item}{2}
\setcounter{bookmark@seq@number}{44}
\setcounter{listings}{0}
\setcounter{loldepth}{1}
\setcounter{pp@a@footnote}{6}
\setcounter{lstlisting}{0}
\setcounter{section@level}{0}
}
