\relax 
\providecommand\hyper@newdestlabel[2]{}
\mph@setcol{ii:89}{\mph@nr}
\@setckpt{FrontBackMatter/Colophon}{
\setcounter{page}{90}
\setcounter{equation}{0}
\setcounter{enumi}{2}
\setcounter{enumii}{0}
\setcounter{enumiii}{0}
\setcounter{enumiv}{0}
\setcounter{footnote}{0}
\setcounter{mpfootnote}{0}
\setcounter{part}{5}
\setcounter{chapter}{2}
\setcounter{section}{0}
\setcounter{subsection}{0}
\setcounter{subsubsection}{0}
\setcounter{paragraph}{0}
\setcounter{subparagraph}{0}
\setcounter{figure}{0}
\setcounter{table}{0}
\setcounter{dummy}{8}
\setcounter{lips@count}{0}
\setcounter{NAT@ctr}{32}
\setcounter{parentequation}{0}
\setcounter{ContinuedFloat}{0}
\setcounter{KVtest}{0}
\setcounter{subfigure}{0}
\setcounter{subfigure@save}{6}
\setcounter{lofdepth}{1}
\setcounter{subtable}{0}
\setcounter{subtable@save}{0}
\setcounter{lotdepth}{1}
\setcounter{lstnumber}{14}
\setcounter{Item}{2}
\setcounter{bookmark@seq@number}{44}
\setcounter{listings}{0}
\setcounter{loldepth}{1}
\setcounter{pp@a@footnote}{6}
\setcounter{lstlisting}{0}
\setcounter{section@level}{0}
}
