\relax 
\providecommand\hyper@newdestlabel[2]{}
\mph@setcol{ii:xi}{\mph@nr}
\mph@setcol{ii:xii}{\mph@nr}
\@writefile{toc}{\contentsline {chapter}{Figures}{xiii}{dummy.4}}
\mph@setcol{ii:xiii}{\mph@nr}
\@writefile{toc}{\contentsline {chapter}{Tables}{xiv}{dummy.5}}
\@writefile{toc}{\contentsline {chapter}{Algorithms}{xiv}{dummy.6}}
\mph@setcol{ii:xiv}{\mph@nr}
\@writefile{toc}{\contentsline {chapter}{Symbols and Notation}{xv}{dummy.7}}
\newacro{x}[\AC@hyperlink{x}{\relax \fontsize  {12}{14.5}\selectfont  \abovedisplayskip 12\p@ plus3\p@ minus7\p@ \abovedisplayshortskip \z@ plus3\p@ \belowdisplayshortskip 6.5\p@ plus3.5\p@ minus3\p@ \belowdisplayskip \abovedisplayskip \let \leftmargin \leftmargini \parsep 5\p@ plus2.5\p@ minus\p@ \topsep 10\p@ plus4\p@ minus6\p@ \itemsep 5\p@ plus2.5\p@ minus\p@ \topsep \z@ \parsep \parskip \itemsep \z@ \leftmargin \leftmargini \parsep 5\p@ plus2.5\p@ minus\p@ \topsep 10\p@ plus4\p@ minus6\p@ \itemsep 5\p@ plus2.5\p@ minus\p@ \topsep \z@ \parsep \parskip \itemsep \z@ \ensuremath  {x}}]{variable}
\newacro{v}[\AC@hyperlink{v}{\relax \fontsize  {12}{14.5}\selectfont  \abovedisplayskip 12\p@ plus3\p@ minus7\p@ \abovedisplayshortskip \z@ plus3\p@ \belowdisplayshortskip 6.5\p@ plus3.5\p@ minus3\p@ \belowdisplayskip \abovedisplayskip \let \leftmargin \leftmargini \parsep 5\p@ plus2.5\p@ minus\p@ \topsep 10\p@ plus4\p@ minus6\p@ \itemsep 5\p@ plus2.5\p@ minus\p@ \topsep \z@ \parsep \parskip \itemsep \z@ \leftmargin \leftmargini \parsep 5\p@ plus2.5\p@ minus\p@ \topsep 10\p@ plus4\p@ minus6\p@ \itemsep 5\p@ plus2.5\p@ minus\p@ \topsep \z@ \parsep \parskip \itemsep \z@ \ensuremath  {\mathbold  {v}}}]{vector}
\newacro{M}[\AC@hyperlink{M}{\relax \fontsize  {12}{14.5}\selectfont  \abovedisplayskip 12\p@ plus3\p@ minus7\p@ \abovedisplayshortskip \z@ plus3\p@ \belowdisplayshortskip 6.5\p@ plus3.5\p@ minus3\p@ \belowdisplayskip \abovedisplayskip \let \leftmargin \leftmargini \parsep 5\p@ plus2.5\p@ minus\p@ \topsep 10\p@ plus4\p@ minus6\p@ \itemsep 5\p@ plus2.5\p@ minus\p@ \topsep \z@ \parsep \parskip \itemsep \z@ \leftmargin \leftmargini \parsep 5\p@ plus2.5\p@ minus\p@ \topsep 10\p@ plus4\p@ minus6\p@ \itemsep 5\p@ plus2.5\p@ minus\p@ \topsep \z@ \parsep \parskip \itemsep \z@ \ensuremath  {A}}]{matrix}
\newacro{D}[\AC@hyperlink{D}{\relax \fontsize  {12}{14.5}\selectfont  \abovedisplayskip 12\p@ plus3\p@ minus7\p@ \abovedisplayshortskip \z@ plus3\p@ \belowdisplayshortskip 6.5\p@ plus3.5\p@ minus3\p@ \belowdisplayskip \abovedisplayskip \let \leftmargin \leftmargini \parsep 5\p@ plus2.5\p@ minus\p@ \topsep 10\p@ plus4\p@ minus6\p@ \itemsep 5\p@ plus2.5\p@ minus\p@ \topsep \z@ \parsep \parskip \itemsep \z@ \leftmargin \leftmargini \parsep 5\p@ plus2.5\p@ minus\p@ \topsep 10\p@ plus4\p@ minus6\p@ \itemsep 5\p@ plus2.5\p@ minus\p@ \topsep \z@ \parsep \parskip \itemsep \z@ \ensuremath  {\mathcal  {D}}}]{set}
\newacro{tilde}[\AC@hyperlink{tilde}{\relax \fontsize  {12}{14.5}\selectfont  \abovedisplayskip 12\p@ plus3\p@ minus7\p@ \abovedisplayshortskip \z@ plus3\p@ \belowdisplayshortskip 6.5\p@ plus3.5\p@ minus3\p@ \belowdisplayskip \abovedisplayskip \let \leftmargin \leftmargini \parsep 5\p@ plus2.5\p@ minus\p@ \topsep 10\p@ plus4\p@ minus6\p@ \itemsep 5\p@ plus2.5\p@ minus\p@ \topsep \z@ \parsep \parskip \itemsep \z@ \leftmargin \leftmargini \parsep 5\p@ plus2.5\p@ minus\p@ \topsep 10\p@ plus4\p@ minus6\p@ \itemsep 5\p@ plus2.5\p@ minus\p@ \topsep \z@ \parsep \parskip \itemsep \z@ \ensuremath  {\sim }}]{distributed according to}
\newacro{eps}[\AC@hyperlink{eps}{\relax \fontsize  {12}{14.5}\selectfont  \abovedisplayskip 12\p@ plus3\p@ minus7\p@ \abovedisplayshortskip \z@ plus3\p@ \belowdisplayshortskip 6.5\p@ plus3.5\p@ minus3\p@ \belowdisplayskip \abovedisplayskip \let \leftmargin \leftmargini \parsep 5\p@ plus2.5\p@ minus\p@ \topsep 10\p@ plus4\p@ minus6\p@ \itemsep 5\p@ plus2.5\p@ minus\p@ \topsep \z@ \parsep \parskip \itemsep \z@ \leftmargin \leftmargini \parsep 5\p@ plus2.5\p@ minus\p@ \topsep 10\p@ plus4\p@ minus6\p@ \itemsep 5\p@ plus2.5\p@ minus\p@ \topsep \z@ \parsep \parskip \itemsep \z@ \ensuremath  {\in }}]{belongs to}
\newacro{prop}[\AC@hyperlink{prop}{\relax \fontsize  {12}{14.5}\selectfont  \abovedisplayskip 12\p@ plus3\p@ minus7\p@ \abovedisplayshortskip \z@ plus3\p@ \belowdisplayshortskip 6.5\p@ plus3.5\p@ minus3\p@ \belowdisplayskip \abovedisplayskip \let \leftmargin \leftmargini \parsep 5\p@ plus2.5\p@ minus\p@ \topsep 10\p@ plus4\p@ minus6\p@ \itemsep 5\p@ plus2.5\p@ minus\p@ \topsep \z@ \parsep \parskip \itemsep \z@ \leftmargin \leftmargini \parsep 5\p@ plus2.5\p@ minus\p@ \topsep 10\p@ plus4\p@ minus6\p@ \itemsep 5\p@ plus2.5\p@ minus\p@ \topsep \z@ \parsep \parskip \itemsep \z@ \ensuremath  {\propto }}]{proportional to}
\newacro{arrow}[\AC@hyperlink{arrow}{\relax \fontsize  {12}{14.5}\selectfont  \abovedisplayskip 12\p@ plus3\p@ minus7\p@ \abovedisplayshortskip \z@ plus3\p@ \belowdisplayshortskip 6.5\p@ plus3.5\p@ minus3\p@ \belowdisplayskip \abovedisplayskip \let \leftmargin \leftmargini \parsep 5\p@ plus2.5\p@ minus\p@ \topsep 10\p@ plus4\p@ minus6\p@ \itemsep 5\p@ plus2.5\p@ minus\p@ \topsep \z@ \parsep \parskip \itemsep \z@ \leftmargin \leftmargini \parsep 5\p@ plus2.5\p@ minus\p@ \topsep 10\p@ plus4\p@ minus6\p@ \itemsep 5\p@ plus2.5\p@ minus\p@ \topsep \z@ \parsep \parskip \itemsep \z@ \ensuremath  {\rightarrow }}]{tends to}
\newacro{I}[\AC@hyperlink{I}{\relax \fontsize  {12}{14.5}\selectfont  \abovedisplayskip 12\p@ plus3\p@ minus7\p@ \abovedisplayshortskip \z@ plus3\p@ \belowdisplayshortskip 6.5\p@ plus3.5\p@ minus3\p@ \belowdisplayskip \abovedisplayskip \let \leftmargin \leftmargini \parsep 5\p@ plus2.5\p@ minus\p@ \topsep 10\p@ plus4\p@ minus6\p@ \itemsep 5\p@ plus2.5\p@ minus\p@ \topsep \z@ \parsep \parskip \itemsep \z@ \leftmargin \leftmargini \parsep 5\p@ plus2.5\p@ minus\p@ \topsep 10\p@ plus4\p@ minus6\p@ \itemsep 5\p@ plus2.5\p@ minus\p@ \topsep \z@ \parsep \parskip \itemsep \z@ \ensuremath  {I}}]{identity matrix}
\newacro{top}[\AC@hyperlink{top}{\relax \fontsize  {12}{14.5}\selectfont  \abovedisplayskip 12\p@ plus3\p@ minus7\p@ \abovedisplayshortskip \z@ plus3\p@ \belowdisplayshortskip 6.5\p@ plus3.5\p@ minus3\p@ \belowdisplayskip \abovedisplayskip \let \leftmargin \leftmargini \parsep 5\p@ plus2.5\p@ minus\p@ \topsep 10\p@ plus4\p@ minus6\p@ \itemsep 5\p@ plus2.5\p@ minus\p@ \topsep \z@ \parsep \parskip \itemsep \z@ \leftmargin \leftmargini \parsep 5\p@ plus2.5\p@ minus\p@ \topsep 10\p@ plus4\p@ minus6\p@ \itemsep 5\p@ plus2.5\p@ minus\p@ \topsep \z@ \parsep \parskip \itemsep \z@ \ensuremath  {\mathbold  {v}^{\top }, A^{\top }}}]{transpose of vector $\mathbold  {v}$ or matrix $A$}
\newacro{dist}[\AC@hyperlink{dist}{\relax \fontsize  {12}{14.5}\selectfont  \abovedisplayskip 12\p@ plus3\p@ minus7\p@ \abovedisplayshortskip \z@ plus3\p@ \belowdisplayshortskip 6.5\p@ plus3.5\p@ minus3\p@ \belowdisplayskip \abovedisplayskip \let \leftmargin \leftmargini \parsep 5\p@ plus2.5\p@ minus\p@ \topsep 10\p@ plus4\p@ minus6\p@ \itemsep 5\p@ plus2.5\p@ minus\p@ \topsep \z@ \parsep \parskip \itemsep \z@ \leftmargin \leftmargini \parsep 5\p@ plus2.5\p@ minus\p@ \topsep 10\p@ plus4\p@ minus6\p@ \itemsep 5\p@ plus2.5\p@ minus\p@ \topsep \z@ \parsep \parskip \itemsep \z@ \ensuremath  {|\mathbold  {v}|}}]{length of vector $\mathbold  {v}$}
\newacro{trace}[\AC@hyperlink{trace}{\relax \fontsize  {12}{14.5}\selectfont  \abovedisplayskip 12\p@ plus3\p@ minus7\p@ \abovedisplayshortskip \z@ plus3\p@ \belowdisplayshortskip 6.5\p@ plus3.5\p@ minus3\p@ \belowdisplayskip \abovedisplayskip \let \leftmargin \leftmargini \parsep 5\p@ plus2.5\p@ minus\p@ \topsep 10\p@ plus4\p@ minus6\p@ \itemsep 5\p@ plus2.5\p@ minus\p@ \topsep \z@ \parsep \parskip \itemsep \z@ \leftmargin \leftmargini \parsep 5\p@ plus2.5\p@ minus\p@ \topsep 10\p@ plus4\p@ minus6\p@ \itemsep 5\p@ plus2.5\p@ minus\p@ \topsep \z@ \parsep \parskip \itemsep \z@ \ensuremath  {tr(A)}}]{trace of matrix A}
\newacro{R}[\AC@hyperlink{R}{\relax \fontsize  {12}{14.5}\selectfont  \abovedisplayskip 12\p@ plus3\p@ minus7\p@ \abovedisplayshortskip \z@ plus3\p@ \belowdisplayshortskip 6.5\p@ plus3.5\p@ minus3\p@ \belowdisplayskip \abovedisplayskip \let \leftmargin \leftmargini \parsep 5\p@ plus2.5\p@ minus\p@ \topsep 10\p@ plus4\p@ minus6\p@ \itemsep 5\p@ plus2.5\p@ minus\p@ \topsep \z@ \parsep \parskip \itemsep \z@ \leftmargin \leftmargini \parsep 5\p@ plus2.5\p@ minus\p@ \topsep 10\p@ plus4\p@ minus6\p@ \itemsep 5\p@ plus2.5\p@ minus\p@ \topsep \z@ \parsep \parskip \itemsep \z@ \ensuremath  {\PazoBB  {R}}}]{set of the real numbers}
\newacro{N}[\AC@hyperlink{N}{\relax \fontsize  {12}{14.5}\selectfont  \abovedisplayskip 12\p@ plus3\p@ minus7\p@ \abovedisplayshortskip \z@ plus3\p@ \belowdisplayshortskip 6.5\p@ plus3.5\p@ minus3\p@ \belowdisplayskip \abovedisplayskip \let \leftmargin \leftmargini \parsep 5\p@ plus2.5\p@ minus\p@ \topsep 10\p@ plus4\p@ minus6\p@ \itemsep 5\p@ plus2.5\p@ minus\p@ \topsep \z@ \parsep \parskip \itemsep \z@ \leftmargin \leftmargini \parsep 5\p@ plus2.5\p@ minus\p@ \topsep 10\p@ plus4\p@ minus6\p@ \itemsep 5\p@ plus2.5\p@ minus\p@ \topsep \z@ \parsep \parskip \itemsep \z@ \ensuremath  {\PazoBB  {N}}}]{set of the natural numbers (strictly positive integers)}
\mph@setcol{ii:xv}{\mph@nr}
\newacro{gamma}[\AC@hyperlink{gamma}{\relax \fontsize  {12}{14.5}\selectfont  \abovedisplayskip 12\p@ plus3\p@ minus7\p@ \abovedisplayshortskip \z@ plus3\p@ \belowdisplayshortskip 6.5\p@ plus3.5\p@ minus3\p@ \belowdisplayskip \abovedisplayskip \let \leftmargin \leftmargini \parsep 5\p@ plus2.5\p@ minus\p@ \topsep 10\p@ plus4\p@ minus6\p@ \itemsep 5\p@ plus2.5\p@ minus\p@ \topsep \z@ \parsep \parskip \itemsep \z@ \leftmargin \leftmargini \parsep 5\p@ plus2.5\p@ minus\p@ \topsep 10\p@ plus4\p@ minus6\p@ \itemsep 5\p@ plus2.5\p@ minus\p@ \topsep \z@ \parsep \parskip \itemsep \z@ \ensuremath  {\Gamma (x)}}]{gamma function}
\newacro{ncdf}[\AC@hyperlink{ncdf}{\relax \fontsize  {12}{14.5}\selectfont  \abovedisplayskip 12\p@ plus3\p@ minus7\p@ \abovedisplayshortskip \z@ plus3\p@ \belowdisplayshortskip 6.5\p@ plus3.5\p@ minus3\p@ \belowdisplayskip \abovedisplayskip \let \leftmargin \leftmargini \parsep 5\p@ plus2.5\p@ minus\p@ \topsep 10\p@ plus4\p@ minus6\p@ \itemsep 5\p@ plus2.5\p@ minus\p@ \topsep \z@ \parsep \parskip \itemsep \z@ \leftmargin \leftmargini \parsep 5\p@ plus2.5\p@ minus\p@ \topsep 10\p@ plus4\p@ minus6\p@ \itemsep 5\p@ plus2.5\p@ minus\p@ \topsep \z@ \parsep \parskip \itemsep \z@ \ensuremath  {\Phi (x)}}]{normal cumulative distribution function}
\newacro{bigo}[\AC@hyperlink{bigo}{\relax \fontsize  {12}{14.5}\selectfont  \abovedisplayskip 12\p@ plus3\p@ minus7\p@ \abovedisplayshortskip \z@ plus3\p@ \belowdisplayshortskip 6.5\p@ plus3.5\p@ minus3\p@ \belowdisplayskip \abovedisplayskip \let \leftmargin \leftmargini \parsep 5\p@ plus2.5\p@ minus\p@ \topsep 10\p@ plus4\p@ minus6\p@ \itemsep 5\p@ plus2.5\p@ minus\p@ \topsep \z@ \parsep \parskip \itemsep \z@ \leftmargin \leftmargini \parsep 5\p@ plus2.5\p@ minus\p@ \topsep 10\p@ plus4\p@ minus6\p@ \itemsep 5\p@ plus2.5\p@ minus\p@ \topsep \z@ \parsep \parskip \itemsep \z@ \ensuremath  {g=O(f)}}]{function $g$ grows asymptotically no faster than function $f$}
\newacro{p}[\AC@hyperlink{p}{\relax \fontsize  {12}{14.5}\selectfont  \abovedisplayskip 12\p@ plus3\p@ minus7\p@ \abovedisplayshortskip \z@ plus3\p@ \belowdisplayshortskip 6.5\p@ plus3.5\p@ minus3\p@ \belowdisplayskip \abovedisplayskip \let \leftmargin \leftmargini \parsep 5\p@ plus2.5\p@ minus\p@ \topsep 10\p@ plus4\p@ minus6\p@ \itemsep 5\p@ plus2.5\p@ minus\p@ \topsep \z@ \parsep \parskip \itemsep \z@ \leftmargin \leftmargini \parsep 5\p@ plus2.5\p@ minus\p@ \topsep 10\p@ plus4\p@ minus6\p@ \itemsep 5\p@ plus2.5\p@ minus\p@ \topsep \z@ \parsep \parskip \itemsep \z@ \ensuremath  {p(a)}}]{probability of event $a$}
\newacro{p2}[\AC@hyperlink{p2}{\relax \fontsize  {12}{14.5}\selectfont  \abovedisplayskip 12\p@ plus3\p@ minus7\p@ \abovedisplayshortskip \z@ plus3\p@ \belowdisplayshortskip 6.5\p@ plus3.5\p@ minus3\p@ \belowdisplayskip \abovedisplayskip \let \leftmargin \leftmargini \parsep 5\p@ plus2.5\p@ minus\p@ \topsep 10\p@ plus4\p@ minus6\p@ \itemsep 5\p@ plus2.5\p@ minus\p@ \topsep \z@ \parsep \parskip \itemsep \z@ \leftmargin \leftmargini \parsep 5\p@ plus2.5\p@ minus\p@ \topsep 10\p@ plus4\p@ minus6\p@ \itemsep 5\p@ plus2.5\p@ minus\p@ \topsep \z@ \parsep \parskip \itemsep \z@ \ensuremath  {p(a \mid b)}}]{probability of event $a$ given event $b$}
\newacro{e}[\AC@hyperlink{e}{\relax \fontsize  {12}{14.5}\selectfont  \abovedisplayskip 12\p@ plus3\p@ minus7\p@ \abovedisplayshortskip \z@ plus3\p@ \belowdisplayshortskip 6.5\p@ plus3.5\p@ minus3\p@ \belowdisplayskip \abovedisplayskip \let \leftmargin \leftmargini \parsep 5\p@ plus2.5\p@ minus\p@ \topsep 10\p@ plus4\p@ minus6\p@ \itemsep 5\p@ plus2.5\p@ minus\p@ \topsep \z@ \parsep \parskip \itemsep \z@ \leftmargin \leftmargini \parsep 5\p@ plus2.5\p@ minus\p@ \topsep 10\p@ plus4\p@ minus6\p@ \itemsep 5\p@ plus2.5\p@ minus\p@ \topsep \z@ \parsep \parskip \itemsep \z@ \ensuremath  {\PazoBB  {E}(x)}}]{expected value of $x$}
\newacro{cov}[\AC@hyperlink{cov}{\relax \fontsize  {12}{14.5}\selectfont  \abovedisplayskip 12\p@ plus3\p@ minus7\p@ \abovedisplayshortskip \z@ plus3\p@ \belowdisplayshortskip 6.5\p@ plus3.5\p@ minus3\p@ \belowdisplayskip \abovedisplayskip \let \leftmargin \leftmargini \parsep 5\p@ plus2.5\p@ minus\p@ \topsep 10\p@ plus4\p@ minus6\p@ \itemsep 5\p@ plus2.5\p@ minus\p@ \topsep \z@ \parsep \parskip \itemsep \z@ \leftmargin \leftmargini \parsep 5\p@ plus2.5\p@ minus\p@ \topsep 10\p@ plus4\p@ minus6\p@ \itemsep 5\p@ plus2.5\p@ minus\p@ \topsep \z@ \parsep \parskip \itemsep \z@ \ensuremath  {cov(\mathbold  {v})}}]{covariance of $\mathbold  {v}$}
\newacro{n}[\AC@hyperlink{n}{\relax \fontsize  {12}{14.5}\selectfont  \abovedisplayskip 12\p@ plus3\p@ minus7\p@ \abovedisplayshortskip \z@ plus3\p@ \belowdisplayshortskip 6.5\p@ plus3.5\p@ minus3\p@ \belowdisplayskip \abovedisplayskip \let \leftmargin \leftmargini \parsep 5\p@ plus2.5\p@ minus\p@ \topsep 10\p@ plus4\p@ minus6\p@ \itemsep 5\p@ plus2.5\p@ minus\p@ \topsep \z@ \parsep \parskip \itemsep \z@ \leftmargin \leftmargini \parsep 5\p@ plus2.5\p@ minus\p@ \topsep 10\p@ plus4\p@ minus6\p@ \itemsep 5\p@ plus2.5\p@ minus\p@ \topsep \z@ \parsep \parskip \itemsep \z@ \ensuremath  {\mathcal  {N}(\mathbold  {\mu }, \Sigma )}}]{Gaussian distribution with mean $\mathbold  {\mu }$ and covariance matrix $\Sigma $}
\newacro{x1}[\AC@hyperlink{x1}{\relax \fontsize  {12}{14.5}\selectfont  \abovedisplayskip 12\p@ plus3\p@ minus7\p@ \abovedisplayshortskip \z@ plus3\p@ \belowdisplayshortskip 6.5\p@ plus3.5\p@ minus3\p@ \belowdisplayskip \abovedisplayskip \let \leftmargin \leftmargini \parsep 5\p@ plus2.5\p@ minus\p@ \topsep 10\p@ plus4\p@ minus6\p@ \itemsep 5\p@ plus2.5\p@ minus\p@ \topsep \z@ \parsep \parskip \itemsep \z@ \leftmargin \leftmargini \parsep 5\p@ plus2.5\p@ minus\p@ \topsep 10\p@ plus4\p@ minus6\p@ \itemsep 5\p@ plus2.5\p@ minus\p@ \topsep \z@ \parsep \parskip \itemsep \z@ \ensuremath  {x,\mathbold  {x}, X}}]{input point(s)}
\newacro{x2}[\AC@hyperlink{x2}{\relax \fontsize  {12}{14.5}\selectfont  \abovedisplayskip 12\p@ plus3\p@ minus7\p@ \abovedisplayshortskip \z@ plus3\p@ \belowdisplayshortskip 6.5\p@ plus3.5\p@ minus3\p@ \belowdisplayskip \abovedisplayskip \let \leftmargin \leftmargini \parsep 5\p@ plus2.5\p@ minus\p@ \topsep 10\p@ plus4\p@ minus6\p@ \itemsep 5\p@ plus2.5\p@ minus\p@ \topsep \z@ \parsep \parskip \itemsep \z@ \leftmargin \leftmargini \parsep 5\p@ plus2.5\p@ minus\p@ \topsep 10\p@ plus4\p@ minus6\p@ \itemsep 5\p@ plus2.5\p@ minus\p@ \topsep \z@ \parsep \parskip \itemsep \z@ \ensuremath  {x_{*},\mathbold  {x_{*}}, X_{*}}}]{test point(s)}
\newacro{fx}[\AC@hyperlink{fx}{\relax \fontsize  {12}{14.5}\selectfont  \abovedisplayskip 12\p@ plus3\p@ minus7\p@ \abovedisplayshortskip \z@ plus3\p@ \belowdisplayshortskip 6.5\p@ plus3.5\p@ minus3\p@ \belowdisplayskip \abovedisplayskip \let \leftmargin \leftmargini \parsep 5\p@ plus2.5\p@ minus\p@ \topsep 10\p@ plus4\p@ minus6\p@ \itemsep 5\p@ plus2.5\p@ minus\p@ \topsep \z@ \parsep \parskip \itemsep \z@ \leftmargin \leftmargini \parsep 5\p@ plus2.5\p@ minus\p@ \topsep 10\p@ plus4\p@ minus6\p@ \itemsep 5\p@ plus2.5\p@ minus\p@ \topsep \z@ \parsep \parskip \itemsep \z@ \ensuremath  {f(\mathbold  {x}), \mathbold  {f}}}]{ground truth}
\newacro{sig}[\AC@hyperlink{sig}{\relax \fontsize  {12}{14.5}\selectfont  \abovedisplayskip 12\p@ plus3\p@ minus7\p@ \abovedisplayshortskip \z@ plus3\p@ \belowdisplayshortskip 6.5\p@ plus3.5\p@ minus3\p@ \belowdisplayskip \abovedisplayskip \let \leftmargin \leftmargini \parsep 5\p@ plus2.5\p@ minus\p@ \topsep 10\p@ plus4\p@ minus6\p@ \itemsep 5\p@ plus2.5\p@ minus\p@ \topsep \z@ \parsep \parskip \itemsep \z@ \leftmargin \leftmargini \parsep 5\p@ plus2.5\p@ minus\p@ \topsep 10\p@ plus4\p@ minus6\p@ \itemsep 5\p@ plus2.5\p@ minus\p@ \topsep \z@ \parsep \parskip \itemsep \z@ \ensuremath  {\sigma _{n}^{2}}}]{sensor noise}
\newacro{y}[\AC@hyperlink{y}{\relax \fontsize  {12}{14.5}\selectfont  \abovedisplayskip 12\p@ plus3\p@ minus7\p@ \abovedisplayshortskip \z@ plus3\p@ \belowdisplayshortskip 6.5\p@ plus3.5\p@ minus3\p@ \belowdisplayskip \abovedisplayskip \let \leftmargin \leftmargini \parsep 5\p@ plus2.5\p@ minus\p@ \topsep 10\p@ plus4\p@ minus6\p@ \itemsep 5\p@ plus2.5\p@ minus\p@ \topsep \z@ \parsep \parskip \itemsep \z@ \leftmargin \leftmargini \parsep 5\p@ plus2.5\p@ minus\p@ \topsep 10\p@ plus4\p@ minus6\p@ \itemsep 5\p@ plus2.5\p@ minus\p@ \topsep \z@ \parsep \parskip \itemsep \z@ \ensuremath  {\mathbold  {y}}}]{noisy measurement of $\mathbold  {f}$, $\mathbold  {y}= \mathbold  {f}+ \sigma _n^{2}$}
\newacro{fxx}[\AC@hyperlink{fxx}{\relax \fontsize  {12}{14.5}\selectfont  \abovedisplayskip 12\p@ plus3\p@ minus7\p@ \abovedisplayshortskip \z@ plus3\p@ \belowdisplayshortskip 6.5\p@ plus3.5\p@ minus3\p@ \belowdisplayskip \abovedisplayskip \let \leftmargin \leftmargini \parsep 5\p@ plus2.5\p@ minus\p@ \topsep 10\p@ plus4\p@ minus6\p@ \itemsep 5\p@ plus2.5\p@ minus\p@ \topsep \z@ \parsep \parskip \itemsep \z@ \leftmargin \leftmargini \parsep 5\p@ plus2.5\p@ minus\p@ \topsep 10\p@ plus4\p@ minus6\p@ \itemsep 5\p@ plus2.5\p@ minus\p@ \topsep \z@ \parsep \parskip \itemsep \z@ \ensuremath  {f(\mathbold  {x_{*}}), \mathbold  {f_{*}}}}]{prediction}
\newacro{k}[\AC@hyperlink{k}{\relax \fontsize  {12}{14.5}\selectfont  \abovedisplayskip 12\p@ plus3\p@ minus7\p@ \abovedisplayshortskip \z@ plus3\p@ \belowdisplayshortskip 6.5\p@ plus3.5\p@ minus3\p@ \belowdisplayskip \abovedisplayskip \let \leftmargin \leftmargini \parsep 5\p@ plus2.5\p@ minus\p@ \topsep 10\p@ plus4\p@ minus6\p@ \itemsep 5\p@ plus2.5\p@ minus\p@ \topsep \z@ \parsep \parskip \itemsep \z@ \leftmargin \leftmargini \parsep 5\p@ plus2.5\p@ minus\p@ \topsep 10\p@ plus4\p@ minus6\p@ \itemsep 5\p@ plus2.5\p@ minus\p@ \topsep \z@ \parsep \parskip \itemsep \z@ \ensuremath  {k(\mathbold  {x}, \mathbold  {x}')}}]{covariance function}
\newacro{K}[\AC@hyperlink{K}{\relax \fontsize  {12}{14.5}\selectfont  \abovedisplayskip 12\p@ plus3\p@ minus7\p@ \abovedisplayshortskip \z@ plus3\p@ \belowdisplayshortskip 6.5\p@ plus3.5\p@ minus3\p@ \belowdisplayskip \abovedisplayskip \let \leftmargin \leftmargini \parsep 5\p@ plus2.5\p@ minus\p@ \topsep 10\p@ plus4\p@ minus6\p@ \itemsep 5\p@ plus2.5\p@ minus\p@ \topsep \z@ \parsep \parskip \itemsep \z@ \leftmargin \leftmargini \parsep 5\p@ plus2.5\p@ minus\p@ \topsep 10\p@ plus4\p@ minus6\p@ \itemsep 5\p@ plus2.5\p@ minus\p@ \topsep \z@ \parsep \parskip \itemsep \z@ \ensuremath  {K(X,X')}}]{covariance matrix}
\newacro{bigsig}[\AC@hyperlink{bigsig}{\relax \fontsize  {12}{14.5}\selectfont  \abovedisplayskip 12\p@ plus3\p@ minus7\p@ \abovedisplayshortskip \z@ plus3\p@ \belowdisplayshortskip 6.5\p@ plus3.5\p@ minus3\p@ \belowdisplayskip \abovedisplayskip \let \leftmargin \leftmargini \parsep 5\p@ plus2.5\p@ minus\p@ \topsep 10\p@ plus4\p@ minus6\p@ \itemsep 5\p@ plus2.5\p@ minus\p@ \topsep \z@ \parsep \parskip \itemsep \z@ \leftmargin \leftmargini \parsep 5\p@ plus2.5\p@ minus\p@ \topsep 10\p@ plus4\p@ minus6\p@ \itemsep 5\p@ plus2.5\p@ minus\p@ \topsep \z@ \parsep \parskip \itemsep \z@ \ensuremath  {\Sigma , \Sigma _{*}}}]{covariance matrix of $\mathbold  {f},\mathbold  {f_{*}}$}
\newacro{th}[\AC@hyperlink{th}{\relax \fontsize  {12}{14.5}\selectfont  \abovedisplayskip 12\p@ plus3\p@ minus7\p@ \abovedisplayshortskip \z@ plus3\p@ \belowdisplayshortskip 6.5\p@ plus3.5\p@ minus3\p@ \belowdisplayskip \abovedisplayskip \let \leftmargin \leftmargini \parsep 5\p@ plus2.5\p@ minus\p@ \topsep 10\p@ plus4\p@ minus6\p@ \itemsep 5\p@ plus2.5\p@ minus\p@ \topsep \z@ \parsep \parskip \itemsep \z@ \leftmargin \leftmargini \parsep 5\p@ plus2.5\p@ minus\p@ \topsep 10\p@ plus4\p@ minus6\p@ \itemsep 5\p@ plus2.5\p@ minus\p@ \topsep \z@ \parsep \parskip \itemsep \z@ \ensuremath  {\mathbold  {\theta }}}]{hyperparameters of the model}
\newacro{bias}[\AC@hyperlink{bias}{\relax \fontsize  {12}{14.5}\selectfont  \abovedisplayskip 12\p@ plus3\p@ minus7\p@ \abovedisplayshortskip \z@ plus3\p@ \belowdisplayshortskip 6.5\p@ plus3.5\p@ minus3\p@ \belowdisplayskip \abovedisplayskip \let \leftmargin \leftmargini \parsep 5\p@ plus2.5\p@ minus\p@ \topsep 10\p@ plus4\p@ minus6\p@ \itemsep 5\p@ plus2.5\p@ minus\p@ \topsep \z@ \parsep \parskip \itemsep \z@ \leftmargin \leftmargini \parsep 5\p@ plus2.5\p@ minus\p@ \topsep 10\p@ plus4\p@ minus6\p@ \itemsep 5\p@ plus2.5\p@ minus\p@ \topsep \z@ \parsep \parskip \itemsep \z@ \ensuremath  {\sigma _{0}^{2}}}]{bias}
\mph@setcol{ii:xvi}{\mph@nr}
\newacro{sigvar}[\AC@hyperlink{sigvar}{\relax \fontsize  {12}{14.5}\selectfont  \abovedisplayskip 12\p@ plus3\p@ minus7\p@ \abovedisplayshortskip \z@ plus3\p@ \belowdisplayshortskip 6.5\p@ plus3.5\p@ minus3\p@ \belowdisplayskip \abovedisplayskip \let \leftmargin \leftmargini \parsep 5\p@ plus2.5\p@ minus\p@ \topsep 10\p@ plus4\p@ minus6\p@ \itemsep 5\p@ plus2.5\p@ minus\p@ \topsep \z@ \parsep \parskip \itemsep \z@ \leftmargin \leftmargini \parsep 5\p@ plus2.5\p@ minus\p@ \topsep 10\p@ plus4\p@ minus6\p@ \itemsep 5\p@ plus2.5\p@ minus\p@ \topsep \z@ \parsep \parskip \itemsep \z@ \ensuremath  {\sigma _{f}^{2}}}]{signal variance}
\newacro{ls}[\AC@hyperlink{ls}{\relax \fontsize  {12}{14.5}\selectfont  \abovedisplayskip 12\p@ plus3\p@ minus7\p@ \abovedisplayshortskip \z@ plus3\p@ \belowdisplayshortskip 6.5\p@ plus3.5\p@ minus3\p@ \belowdisplayskip \abovedisplayskip \let \leftmargin \leftmargini \parsep 5\p@ plus2.5\p@ minus\p@ \topsep 10\p@ plus4\p@ minus6\p@ \itemsep 5\p@ plus2.5\p@ minus\p@ \topsep \z@ \parsep \parskip \itemsep \z@ \leftmargin \leftmargini \parsep 5\p@ plus2.5\p@ minus\p@ \topsep 10\p@ plus4\p@ minus6\p@ \itemsep 5\p@ plus2.5\p@ minus\p@ \topsep \z@ \parsep \parskip \itemsep \z@ \ensuremath  {l, \mathbold  {l}}}]{length-scale}
\newacro{BFGS}[\AC@hyperlink{BFGS}{BFGS}]{Broyden-Fletcher-Goldfarb-Shanno quasi-Newton method}
\newacro{DEM}[\AC@hyperlink{DEM}{DEM}]{digital elevation map}
\newacro{FPR}[\AC@hyperlink{FPR}{FPR}]{false positive rate}
\newacro{GP}[\AC@hyperlink{GP}{GP}]{Gaussian process}
\newacroplural{GP}{Gaussian processes}
\newacro{GPOM}[\AC@hyperlink{GPOM}{GPOM}]{Gaussian process occupancy map}
\newacro{GPOMIK}[\AC@hyperlink{GPOMIK}{GPOMIK}]{Gaussian process occupancy map using integral kernels}
\newacroplural{GPOMIK}{Gaussian process occupancy maps using integral kernels}
\newacro{iid}[\AC@hyperlink{iid}{iid}]{independent and identically distributed}
\newacroplural{iid}{independent and identically distributed}
\newacro{ML}[\AC@hyperlink{ML}{ML}]{machine learning}
\newacroplural{ML}{machine learning}
\newacro{MSK}[\AC@hyperlink{MSK}{MSK}]{multi-support kernel}
\newacro{MSK-GP}[\AC@hyperlink{MSK-GP}{MS-GP}]{multi-support Gaussian process}
\newacroplural{MSK-GP}[MS-GP]{multi-support Gaussian processes}
\newacro{MSK-GPOM}[\AC@hyperlink{MSK-GPOM}{MS-GPOM}]{multi-support Gaussian process occupancy map}
\newacroplural{MSK-GPOM}[MS-GPOM]{multi-support Gaussian process occupancy maps}
\newacro{NN}[\AC@hyperlink{NN}{NN}]{neural network}
\newacro{OGM}[\AC@hyperlink{OGM}{OGM}]{occupancy grid map}
\newacro{PCA}[\AC@hyperlink{PCA}{PCA}]{principal component analysis}
\newacroplural{PCAs}{principal component analyses}
\newacro{PSD}[\AC@hyperlink{PSD}{PSD}]{positive semi-definite}
\newacroplural{PSD}{positive semi-definite}
\newacro{ROC}[\AC@hyperlink{ROC}{ROC}]{receiver operating characteristic}
\newacro{SLAM}[\AC@hyperlink{SLAM}{SLAM}]{simultaneous localisation and mapping}
\newacroplural{SLAM}{simultaneous localisation and mapping}
\newacro{TPR}[\AC@hyperlink{TPR}{TPR}]{true positive rate}
\mph@setcol{ii:xvii}{\mph@nr}
\@setckpt{FrontBackMatter/Contents}{
\setcounter{page}{18}
\setcounter{equation}{0}
\setcounter{enumi}{0}
\setcounter{enumii}{0}
\setcounter{enumiii}{0}
\setcounter{enumiv}{0}
\setcounter{footnote}{0}
\setcounter{mpfootnote}{0}
\setcounter{part}{0}
\setcounter{chapter}{0}
\setcounter{section}{0}
\setcounter{subsection}{0}
\setcounter{subsubsection}{0}
\setcounter{paragraph}{0}
\setcounter{subparagraph}{0}
\setcounter{figure}{0}
\setcounter{table}{0}
\setcounter{dummy}{7}
\setcounter{lips@count}{0}
\setcounter{NAT@ctr}{0}
\setcounter{parentequation}{0}
\setcounter{ContinuedFloat}{0}
\setcounter{KVtest}{0}
\setcounter{subfigure}{0}
\setcounter{subfigure@save}{0}
\setcounter{lofdepth}{1}
\setcounter{subtable}{0}
\setcounter{subtable@save}{0}
\setcounter{lotdepth}{1}
\setcounter{lstnumber}{1}
\setcounter{Item}{0}
\setcounter{bookmark@seq@number}{8}
\setcounter{listings}{0}
\setcounter{loldepth}{1}
\setcounter{pp@a@footnote}{0}
\setcounter{lstlisting}{0}
\setcounter{section@level}{0}
}
