\relax 
\select@language{english}
\@writefile{toc}{\select@language{english}}
\@writefile{lof}{\select@language{english}}
\@writefile{lot}{\select@language{english}}
\@writefile{lof}{\contentsline {figure}{\numberline {1}{\ignorespaces Conventional DEM. In Ishigami \textit  {et al.}, 2013.\relax }}{2}}
\providecommand*\caption@xref[2]{\@setref\relax\@undefined{#1}}
\newlabel{dem}{{1}{2}}
\@writefile{lof}{\contentsline {figure}{\numberline {2}{\ignorespaces Visual representation of the kernels obtained by Lang \textit  {et al.} (2004). To the left, an artificial terrain with a sharp edge. To the right, the shape of the kernels in the region.\relax }}{3}}
\newlabel{lang}{{2}{3}}
\@writefile{lof}{\contentsline {figure}{\numberline {3}{\ignorespaces Demonstration of the local kernel adaptation process on artificially generated terrain data. The data set, shown in the first row, was designed to contain several local features hard to adapt to. Noise was added to make the surfaces rougher and more similar to natural environments, and is illustrated in the second column of this row. The second row depicts the results of standard GP learning and regression The two following rows show the results after one and three iterations of kernel adaptation. The leftmost column, the kernel dimensions and orientations after each corresponding iteration are shown. The second column represents the predicted means of the regression. The third and fourth column respectively allow us to visualise the absolute errors to the known ground truth elevations and the resulting learning rates for the next adaptation step, resulting from the estimated data likelihoods. Lang \textit  {et al.} (2004)\relax }}{4}}
\newlabel{lang2}{{3}{4}}
\@writefile{lof}{\contentsline {figure}{\numberline {4}{\ignorespaces Cylindrical coordinate DEM. In Ishigami \textit  {et al.}, 2013.\relax }}{5}}
\newlabel{cdem}{{4}{5}}
\@writefile{lof}{\contentsline {figure}{\numberline {5}{\ignorespaces Sampling ratio from point cloud to node in DEM and C2DEM conversion. Ishigami \textit  {et al.} (2007).\relax }}{5}}
\newlabel{ishi}{{5}{5}}
\@writefile{lof}{\contentsline {figure}{\numberline {6}{\ignorespaces Table showing performance comparison between conventional DEM and proposed C2DEM. Ishigami \textit  {et al.} (2007).\relax }}{6}}
\newlabel{ishi2}{{6}{6}}
\@writefile{lof}{\contentsline {figure}{\numberline {7}{\ignorespaces Shrihari \textit  {et al.} (2009).\relax }}{6}}
\newlabel{shrihari}{{7}{6}}
\@writefile{lof}{\contentsline {figure}{\numberline {8}{\ignorespaces 2-D Simulated Dataset.(a) Plan view of room. Robot poses are shown as red diamonds. Observed occupied points and free-space line segments are represented by green crosses and blue lines, respectively. (b) Probability of occupancy versus location. (c) Predictive variance map.(d) ROC curve comparing the performance of the analysed methods on a simulated dataset with known ground truth. O'Callaghan \textit  {et al.} (2011).\relax }}{7}}
\newlabel{simon}{{8}{7}}
\@writefile{lof}{\contentsline {figure}{\numberline {9}{\ignorespaces  Quantitative comparison of experimental results. O'Callaghan \textit  {et al.} (2011).\relax }}{7}}
\newlabel{simon2}{{9}{7}}
\@writefile{lof}{\contentsline {figure}{\numberline {10}{\ignorespaces Time comparison between the GPOMIK and the GPOM on the 3D simulated dataset. GPOMIK from scratch indicates the method where the kernel is recalculated in each iteration, while "stored K" represents optimised update. O'Callaghan \textit  {et al.} (2011).\relax }}{7}}
\newlabel{simon3}{{10}{7}}
\bibcite{book1}{\textbf  {MacKay, 2003}}
\bibcite{paper1}{\textbf  {Lang \textit  {et al.}, 2007}}
\bibcite{paper2}{\textbf  {Vasudevan \textit  {et al.}, 2009}}
\bibcite{paper}{\textbf  {O'Callaghan, 2011}}
\bibcite{thesis}{\textbf  {O'Callaghan, 2012}}
\bibcite{paper4}{\textbf  {Ishigami \textit  {et al.}, 2013}}
\bibcite{survey}{\textbf  {Papadakis, 2013}}
\newlabel{LastPage}{{}{8}}
\xdef\lastpage@lastpage{8}
\gdef\lastpage@lastpageHy{}
