\relax 
\providecommand\hyper@newdestlabel[2]{}
\newlabel{theory}{{3}{34}{Shortcomings of Gaussian Processes}{part.3}{}}
\@writefile{toc}{\contentsline {chapter}{\numberline {3.1}\spacedlowsmallcaps  {Introduction}}{34}{chapter.3.1}}
\@writefile{lof}{\addvspace {10\p@ }}
\@writefile{lot}{\addvspace {10\p@ }}
\@writefile{lol}{\addvspace {10\p@ }}
\undonewlabel{acro:OGM}
\newlabel{acro:OGM}{{3}{34}{Shortcomings of Gaussian Processes}{section*.24}{}}
\acronymused{OGM}
\undonewlabel{acro:GP}
\newlabel{acro:GP}{{3}{34}{Shortcomings of Gaussian Processes}{section*.25}{}}
\acronymused{GP}
\acronymused{GP}
\acronymused{GP}
\mph@setcol{ii:34}{\mph@nr}
\citation{support}
\citation{carlin}
\citation{support}
\@writefile{toc}{\contentsline {chapter}{\numberline {3.2}\spacedlowsmallcaps  {Related Work}}{35}{chapter.3.2}}
\@writefile{lof}{\addvspace {10\p@ }}
\@writefile{lot}{\addvspace {10\p@ }}
\@writefile{lol}{\addvspace {10\p@ }}
\newlabel{rltwrk}{{3}{35}{Shortcomings of Gaussian Processes}{chapter.3.2}{}}
\@writefile{toc}{\contentsline {section}{\numberline {3.2.1}Change of Support in Gaussian Processes}{35}{section.3.2.1}}
\newlabel{intkern}{{3.2.1}{35}{Change of Support in Gaussian Processes}{section.3.2.1}{}}
\acronymused{GP}
\mph@setcol{ii:35}{\mph@nr}
\citation{reidthesis}
\citation{reidthesis}
\citation{reidthesis}
\newlabel{areaint}{{3.1}{36}{Change of Support in Gaussian Processes}{equation.3.1}{}}
\acronymused{GP}
\mph@setcol{ii:36}{\mph@nr}
\newlabel{alla}{{3.1a}{37}{Subfigure 3.2 3.1a}{subfigure.3.1.1}{}}
\newlabel{sub@alla}{{(a)}{a}{Subfigure 3.2 3.1a\relax }{subfigure.3.1.1}{}}
\newlabel{allb}{{3.1b}{37}{Subfigure 3.2 3.1b}{subfigure.3.1.2}{}}
\newlabel{sub@allb}{{(b)}{b}{Subfigure 3.2 3.1b\relax }{subfigure.3.1.2}{}}
\newlabel{allc}{{3.1c}{37}{Subfigure 3.2 3.1c}{subfigure.3.1.3}{}}
\newlabel{sub@allc}{{(c)}{c}{Subfigure 3.2 3.1c\relax }{subfigure.3.1.3}{}}
\@writefile{lof}{\contentsline {figure}{\numberline {3.1}{\ignorespaces Demonstration of GP using areas as support}}{37}{figure.caption.26}}
\newlabel{agp}{{3.1}{37}{Demonstration of GP using areas as support}{figure.caption.26}{}}
\@writefile{lof}{\contentsline {subfigure}{\numberline{(a)}{\ignorespaces { Colored rectangles and points are the input data, grey surface is the prediction.}}}{37}{subfigure.1.1}}
\@writefile{lof}{\contentsline {subfigure}{\numberline{(b)}{\ignorespaces {Ground truth}}}{37}{subfigure.1.2}}
\@writefile{lof}{\contentsline {subfigure}{\numberline{(c)}{\ignorespaces {Estimate}}}{37}{subfigure.1.3}}
\mph@setcol{ii:37}{\mph@nr}
\citation{reidthesis}
\citation{reidthesis}
\newlabel{linearea}{{3.2}{38}{Change of Support in Gaussian Processes}{equation.3.2}{}}
\@writefile{lof}{\contentsline {figure}{\numberline {3.2}{\ignorespaces Schematic representation of integral kernels}}{38}{figure.caption.27}}
\newlabel{elker}{{3.2}{38}{Schematic representation of integral kernels}{figure.caption.27}{}}
\newlabel{palK}{{3.3}{38}{Change of Support in Gaussian Processes}{equation.3.3}{}}
\mph@setcol{ii:38}{\mph@nr}
\newlabel{iksqexp}{{3.4}{39}{Change of Support in Gaussian Processes}{equation.3.4}{}}
\newlabel{separable}{{3.5}{39}{Change of Support in Gaussian Processes}{equation.3.5}{}}
\mph@setcol{ii:39}{\mph@nr}
\citation{simonthesis}
\citation{simonthesis}
\citation{simonthesis}
\citation{simonthesis}
\citation{simonaaai}
\citation{simonaaai}
\citation{simonaaai}
\citation{simonaaai}
\newlabel{sepkern}{{3.6}{40}{Change of Support in Gaussian Processes}{equation.3.6}{}}
\acronymused{GP}
\@writefile{toc}{\contentsline {section}{\numberline {3.2.2}Gaussian Process Occupancy Mapping}{40}{section.3.2.2}}
\newlabel{GPOM}{{3.2.2}{40}{Gaussian Process Occupancy Mapping}{section.3.2.2}{}}
\mph@setcol{ii:40}{\mph@nr}
\undonewlabel{acro:iid}
\newlabel{acro:iid}{{3.2.2}{41}{Gaussian Process Occupancy Mapping}{section*.28}{}}
\acronymused{iid}
\acronymused{GP}
\undonewlabel{acro:GPOM}
\newlabel{acro:GPOM}{{3.2.2}{41}{Gaussian Process Occupancy Mapping}{section*.29}{}}
\acronymused{GPOM}
\acronymused{GPOM}
\acronymused{GP}
\acronymused{GP}
\acronymused{OGM}
\mph@setcol{ii:41}{\mph@nr}
\acronymused{GPOM}
\acronymused{OGM}
\newlabel{sima}{{3.3a}{42}{Subfigure 3.2 3.3a}{subfigure.3.3.1}{}}
\newlabel{sub@sima}{{(a)}{a}{Subfigure 3.2 3.3a\relax }{subfigure.3.3.1}{}}
\newlabel{simb}{{3.3b}{42}{Subfigure 3.2 3.3b}{subfigure.3.3.2}{}}
\newlabel{sub@simb}{{(b)}{b}{Subfigure 3.2 3.3b\relax }{subfigure.3.3.2}{}}
\acronymused{OGM}
\newlabel{simc}{{3.3c}{42}{Subfigure 3.2 3.3c}{subfigure.3.3.3}{}}
\newlabel{sub@simc}{{(c)}{c}{Subfigure 3.2 3.3c\relax }{subfigure.3.3.3}{}}
\newlabel{simd}{{3.3d}{42}{Subfigure 3.2 3.3d}{subfigure.3.3.4}{}}
\newlabel{sub@simd}{{(d)}{d}{Subfigure 3.2 3.3d\relax }{subfigure.3.3.4}{}}
\newlabel{sime}{{3.3e}{42}{Subfigure 3.2 3.3e}{subfigure.3.3.5}{}}
\newlabel{sub@sime}{{(e)}{e}{Subfigure 3.2 3.3e\relax }{subfigure.3.3.5}{}}
\acronymused{GPOM}
\newlabel{simf}{{3.3f}{42}{Subfigure 3.2 3.3f}{subfigure.3.3.6}{}}
\newlabel{sub@simf}{{(f)}{f}{Subfigure 3.2 3.3f\relax }{subfigure.3.3.6}{}}
\@writefile{lof}{\contentsline {figure}{\numberline {3.3}{\ignorespaces GPOM demonstration with simulated 2D dataset}}{42}{figure.caption.30}}
\acronymused{GPOM}
\newlabel{sim}{{3.3}{42}{GPOM demonstration with simulated 2D dataset}{figure.caption.30}{}}
\@writefile{lof}{\contentsline {subfigure}{\numberline{(a)}{\ignorespaces {Ground truth}}}{42}{subfigure.3.1}}
\@writefile{lof}{\contentsline {subfigure}{\numberline{(b)}{\ignorespaces {Laser returns and robot pose}}}{42}{subfigure.3.2}}
\@writefile{lof}{\contentsline {subfigure}{\numberline{(c)}{\ignorespaces {Traditional \ac {OGM}}}}{42}{subfigure.3.3}}
\@writefile{lof}{\contentsline {subfigure}{\numberline{(d)}{\ignorespaces {Predictive variance of Gaussian process}}}{42}{subfigure.3.4}}
\@writefile{lof}{\contentsline {subfigure}{\numberline{(e)}{\ignorespaces {Probability of occupancy versus location}}}{42}{subfigure.3.5}}
\@writefile{lof}{\contentsline {subfigure}{\numberline{(f)}{\ignorespaces {Classified \ac {GPOM}. Black = occupied ($p(Occupied) \geq 0.65$), white = free ($p(Occupied) \leq 0.35$), grey = unsure. }}}{42}{subfigure.3.6}}
\mph@setcol{ii:42}{\mph@nr}
\@writefile{lot}{\contentsline {table}{\numberline {3.1}{\ignorespaces GPOMIK result analysis}}{43}{table.caption.31}}
\newlabel{simtab}{{3.1}{43}{GPOMIK result analysis}{table.caption.31}{}}
\@writefile{lof}{\contentsline {figure}{\numberline {3.4}{\ignorespaces Benchmarks for GPOM variations}}{43}{figure.caption.32}}
\newlabel{simik}{{3.4}{43}{Benchmarks for GPOM variations}{figure.caption.32}{}}
\@writefile{lof}{\contentsline {subfigure}{\numberline{(a)}{\ignorespaces {}}}{43}{subfigure.4.1}}
\@writefile{lof}{\contentsline {subfigure}{\numberline{(b)}{\ignorespaces {}}}{43}{subfigure.4.2}}
\undonewlabel{acro:GPOMIK}
\newlabel{acro:GPOMIK}{{3.2.2}{43}{Gaussian Process Occupancy Mapping}{section*.33}{}}
\acronymused{GPOMIK}
\acronymused{GPOM}
\mph@setcol{ii:43}{\mph@nr}
\@writefile{toc}{\contentsline {chapter}{\numberline {3.3}\spacedlowsmallcaps  {Multi-support Kernels}}{44}{chapter.3.3}}
\@writefile{lof}{\addvspace {10\p@ }}
\@writefile{lot}{\addvspace {10\p@ }}
\@writefile{lol}{\addvspace {10\p@ }}
\newlabel{MSK}{{3.2.2}{44}{Gaussian Process Occupancy Mapping}{chapter.3.3}{}}
\acronymused{MSK}
\undonewlabel{acro:NN}
\newlabel{acro:NN}{{3.2.2}{44}{Gaussian Process Occupancy Mapping}{section*.34}{}}
\acronymused{NN}
\@writefile{toc}{\contentsline {section}{\numberline {3.3.1}Proposed Kernel}{44}{section.3.3.1}}
\mph@setcol{ii:44}{\mph@nr}
\citation{hastie,gpml}
\citation{support}
\citation{scholk2013}
\newlabel{mski}{{3.7}{45}{Proposed Kernel}{equation.3.7}{}}
\newlabel{MSK}{{3.8}{45}{Proposed Kernel}{equation.3.8}{}}
\undonewlabel{acro:PSD}
\newlabel{acro:PSD}{{3.3.1}{45}{Proposed Kernel}{section*.35}{}}
\acronymused{PSD}
\undonewlabel{acro:MSK}
\newlabel{acro:MSK}{{3.3.1}{45}{Proposed Kernel}{section*.36}{}}
\acronymused{MSK}
\pp@pagectr{footnote}{4}{63}{45}
\mph@setcol{ii:45}{\mph@nr}
\@writefile{lol}{\contentsline {lstlisting}{\numberline {3.1}Element-to-element kernel algorithm.}{46}{lstlisting.3.1}}
\newlabel{kee}{{3.1}{46}{Proposed Kernel}{lstlisting.3.1}{}}
\@writefile{lol}{\contentsline {lstlisting}{\numberline {3.2}Element-to-point kernel algorithm.}{46}{lstlisting.3.2}}
\newlabel{kep}{{3.2}{46}{Proposed Kernel}{lstlisting.3.2}{}}
\newlabel{multikern}{{3.9}{46}{Proposed Kernel}{equation.3.9}{}}
\mph@setcol{ii:46}{\mph@nr}
\@writefile{lol}{\contentsline {lstlisting}{\numberline {3.3}Multi-support kernel algorithm.}{47}{lstlisting.3.3}}
\newlabel{mskalg}{{3.3}{47}{Proposed Kernel}{lstlisting.3.3}{}}
\acronymused{GP}
\@writefile{toc}{\contentsline {chapter}{\numberline {3.4}\spacedlowsmallcaps  {Mapping with multi-support kernels}}{47}{chapter.3.4}}
\@writefile{lof}{\addvspace {10\p@ }}
\@writefile{lot}{\addvspace {10\p@ }}
\@writefile{lol}{\addvspace {10\p@ }}
\acronymused{GP}
\acronymused{MSK}
\mph@setcol{ii:47}{\mph@nr}
\acronymused{MSK}
\undonewlabel{acro:MSK-GPOM}
\newlabel{acro:MSK-GPOM}{{3.3.1}{48}{Proposed Kernel}{section*.37}{}}
\acronymused{MSK-GPOM}
\@writefile{toc}{\contentsline {section}{\numberline {3.4.1}Mapping with a Synthetic Dataset}{48}{section.3.4.1}}
\mph@setcol{ii:48}{\mph@nr}
\@writefile{lof}{\contentsline {figure}{\numberline {3.5}{\ignorespaces Flowchart for MSK-GPOM}}{49}{figure.caption.38}}
\acronymused{MSK-GPOM}
\newlabel{flow}{{3.5}{49}{Flowchart for MSK-GPOM}{figure.caption.38}{}}
\mph@setcol{ii:49}{\mph@nr}
\newlabel{gt}{{3.6a}{50}{Subfigure 3.4 3.6a}{subfigure.3.6.1}{}}
\newlabel{sub@gt}{{(a)}{a}{Subfigure 3.4 3.6a\relax }{subfigure.3.6.1}{}}
\newlabel{rf}{{3.6b}{50}{Subfigure 3.4 3.6b}{subfigure.3.6.2}{}}
\newlabel{sub@rf}{{(b)}{b}{Subfigure 3.4 3.6b\relax }{subfigure.3.6.2}{}}
\newlabel{fh}{{3.6c}{50}{Subfigure 3.4 3.6c}{subfigure.3.6.3}{}}
\newlabel{sub@fh}{{(c)}{c}{Subfigure 3.4 3.6c\relax }{subfigure.3.6.3}{}}
\newlabel{fh}{{3.6d}{50}{Subfigure 3.4 3.6d}{subfigure.3.6.4}{}}
\newlabel{sub@fh}{{(d)}{d}{Subfigure 3.4 3.6d\relax }{subfigure.3.6.4}{}}
\@writefile{lof}{\contentsline {figure}{\numberline {3.6}{\ignorespaces Sample dataset}}{50}{figure.caption.39}}
\acronymused{MSK-GP}
\newlabel{data}{{3.6}{50}{Sample dataset}{figure.caption.39}{}}
\@writefile{lof}{\contentsline {subfigure}{\numberline{(a)}{\ignorespaces {Ground truth}}}{50}{subfigure.6.1}}
\@writefile{lof}{\contentsline {subfigure}{\numberline{(b)}{\ignorespaces {Rangefinder data: free beams in red and hits in blue.}}}{50}{subfigure.6.2}}
\@writefile{lof}{\contentsline {subfigure}{\numberline{(c)}{\ignorespaces {Free points in green, occupied in red.}}}{50}{subfigure.6.3}}
\@writefile{lof}{\contentsline {subfigure}{\numberline{(d)}{\ignorespaces {Dataset partitioned into elements.}}}{50}{subfigure.6.4}}
\mph@setcol{ii:50}{\mph@nr}
\pp@pagectr{footnote}{5}{69}{51}
\@writefile{lof}{\contentsline {figure}{\numberline {3.7}{\ignorespaces Element generation process demonstration}}{51}{figure.caption.41}}
\newlabel{elements}{{3.7}{51}{Element generation process demonstration}{figure.caption.41}{}}
\@writefile{lof}{\contentsline {subfigure}{\numberline{(a)}{\ignorespaces {}}}{51}{subfigure.7.1}}
\@writefile{lof}{\contentsline {subfigure}{\numberline{(b)}{\ignorespaces {}}}{51}{subfigure.7.2}}
\@writefile{lof}{\contentsline {subfigure}{\numberline{(c)}{\ignorespaces {}}}{51}{subfigure.7.3}}
\@writefile{lof}{\contentsline {subfigure}{\numberline{(d)}{\ignorespaces {}}}{51}{subfigure.7.4}}
\@writefile{lof}{\contentsline {subfigure}{\numberline{(e)}{\ignorespaces {}}}{51}{subfigure.7.5}}
\mph@setcol{ii:51}{\mph@nr}
\citation{ann1,ann2}
\citation{bfgs1,bfgs2,bfgs3,bfgs4}
\@writefile{lol}{\contentsline {lstlisting}{\numberline {3.4}Pre-processing algorithm.}{52}{lstlisting.3.4}}
\newlabel{ppalg}{{3.4}{52}{Mapping with a Synthetic Dataset}{lstlisting.3.4}{}}
\@writefile{lol}{\contentsline {lstlisting}{\numberline {3.5}Recursive algorithm to find valid elements.}{52}{lstlisting.3.5}}
\newlabel{findel}{{3.5}{52}{Mapping with a Synthetic Dataset}{lstlisting.3.5}{}}
\mph@setcol{ii:52}{\mph@nr}
\undonewlabel{acro:BFGS}
\newlabel{acro:BFGS}{{3.4.1}{53}{Mapping with a Synthetic Dataset}{section*.42}{}}
\acronymused{BFGS}
\acronymused{GP}
\acronymused{GP}
\newlabel{sigmoid}{{3.10}{53}{Mapping with a Synthetic Dataset}{equation.3.10}{}}
\acronymused{OGM}
\mph@setcol{ii:53}{\mph@nr}
\newlabel{gt}{{3.8a}{54}{Subfigure 3.4 3.8a}{subfigure.3.8.1}{}}
\newlabel{sub@gt}{{(a)}{a}{Subfigure 3.4 3.8a\relax }{subfigure.3.8.1}{}}
\newlabel{fh}{{3.8c}{54}{Subfigure 3.4 3.8c}{subfigure.3.8.3}{}}
\newlabel{sub@fh}{{(c)}{c}{Subfigure 3.4 3.8c\relax }{subfigure.3.8.3}{}}
\@writefile{lof}{\contentsline {figure}{\numberline {3.8}{\ignorespaces Sample output}}{54}{figure.caption.43}}
\newlabel{map1}{{3.8}{54}{Sample output}{figure.caption.43}{}}
\@writefile{lof}{\contentsline {subfigure}{\numberline{(a)}{\ignorespaces {Probability of occupancy}}}{54}{subfigure.8.1}}
\@writefile{lof}{\contentsline {subfigure}{\numberline{(b)}{\ignorespaces {Variance}}}{54}{subfigure.8.2}}
\@writefile{lof}{\contentsline {subfigure}{\numberline{(c)}{\ignorespaces {Occupancy map.}}}{54}{subfigure.8.3}}
\mph@setcol{ii:54}{\mph@nr}
\citation{reidthesis}
\citation{simonthesis}
\@writefile{lol}{\contentsline {lstlisting}{\numberline {3.6}MSK-GPOM algorithm.}{55}{lstlisting.3.6}}
\newlabel{mskgpomalg}{{3.6}{55}{Mapping with a Synthetic Dataset}{lstlisting.3.6}{}}
\@writefile{toc}{\contentsline {chapter}{\numberline {3.5}\spacedlowsmallcaps  {Summary}}{55}{chapter.3.5}}
\@writefile{lof}{\addvspace {10\p@ }}
\@writefile{lot}{\addvspace {10\p@ }}
\@writefile{lol}{\addvspace {10\p@ }}
\acronymused{MSK}
\mph@setcol{ii:55}{\mph@nr}
\acronymused{MSK-GP}
\acronymused{MSK-GPOM}
\acronymused{GPOMIK}
\mph@setcol{ii:56}{\mph@nr}
\@setckpt{Chapters/Chapter03}{
\setcounter{page}{57}
\setcounter{equation}{10}
\setcounter{enumi}{2}
\setcounter{enumii}{0}
\setcounter{enumiii}{0}
\setcounter{enumiv}{0}
\setcounter{footnote}{0}
\setcounter{mpfootnote}{0}
\setcounter{part}{3}
\setcounter{chapter}{5}
\setcounter{section}{0}
\setcounter{subsection}{0}
\setcounter{subsubsection}{0}
\setcounter{paragraph}{0}
\setcounter{subparagraph}{0}
\setcounter{figure}{8}
\setcounter{table}{1}
\setcounter{dummy}{7}
\setcounter{lips@count}{0}
\setcounter{NAT@ctr}{0}
\setcounter{parentequation}{0}
\setcounter{ContinuedFloat}{0}
\setcounter{KVtest}{0}
\setcounter{subfigure}{0}
\setcounter{subfigure@save}{3}
\setcounter{lofdepth}{1}
\setcounter{subtable}{0}
\setcounter{subtable@save}{0}
\setcounter{lotdepth}{1}
\setcounter{lstnumber}{14}
\setcounter{Item}{2}
\setcounter{bookmark@seq@number}{33}
\setcounter{listings}{0}
\setcounter{loldepth}{1}
\setcounter{pp@a@footnote}{5}
\setcounter{lstlisting}{6}
\setcounter{section@level}{0}
}
