\relax 
\providecommand\hyper@newdestlabel[2]{}
\citation{probrob}
\newlabel{background}{{2}{8}{Declaration}{part.2}{}}
\@writefile{toc}{\contentsline {chapter}{\numberline {2.1}\spacedlowsmallcaps  {Robotic Mapping}}{8}{chapter.2.1}}
\@writefile{lof}{\addvspace {10\p@ }}
\@writefile{lot}{\addvspace {10\p@ }}
\@writefile{lol}{\addvspace {10\p@ }}
\newlabel{roma}{{2}{8}{Declaration}{chapter.2.1}{}}
\undonewlabel{acro:SLAM}
\newlabel{acro:SLAM}{{2}{8}{Declaration}{section*.13}{}}
\acronymused{SLAM}
\mph@setcol{ii:8}{\mph@nr}
\citation{probrob}
\citation{probrob}
\citation{mapsurv}
\mph@setcol{ii:9}{\mph@nr}
\citation{moravekelfes}
\citation{moravek,elfes}
\@writefile{lof}{\contentsline {figure}{\numberline {2.1}{\ignorespaces Simple topological map}}{10}{figure.caption.14}}
\newlabel{topomap}{{2.1}{10}{Simple topological map}{figure.caption.14}{}}
\@writefile{toc}{\contentsline {section}{\numberline {2.1.1}Occupancy Grid Mapping}{10}{section.2.1.1}}
\newlabel{secogm}{{2.1.1}{10}{Occupancy Grid Mapping}{section.2.1.1}{}}
\undonewlabel{acro:OGM}
\newlabel{acro:OGM}{{2.1.1}{10}{Occupancy Grid Mapping}{section*.15}{}}
\acronymused{OGM}
\mph@setcol{ii:10}{\mph@nr}
\acronymused{OGM}
\newlabel{post}{{2.1}{11}{Occupancy Grid Mapping}{equation.2.1}{}}
\pp@pagectr{footnote}{1}{29}{11}
\newlabel{postap}{{2.2}{11}{Occupancy Grid Mapping}{equation.2.2}{}}
\undonewlabel{acro:iid}
\newlabel{acro:iid}{{2.1.1}{11}{Occupancy Grid Mapping}{section*.16}{}}
\acronymused{iid}
\mph@setcol{ii:11}{\mph@nr}
\citation{thrun-occ}
\newlabel{bayz}{{2.3}{12}{Occupancy Grid Mapping}{equation.2.3}{}}
\newlabel{stat}{{2.4}{12}{Occupancy Grid Mapping}{equation.2.4}{}}
\newlabel{statap}{{2.5}{12}{Occupancy Grid Mapping}{equation.2.5}{}}
\mph@setcol{ii:12}{\mph@nr}
\newlabel{bayzsimple}{{2.6}{13}{Occupancy Grid Mapping}{equation.2.6}{}}
\newlabel{baynotz}{{2.7}{13}{Occupancy Grid Mapping}{equation.2.7}{}}
\newlabel{baydiv}{{2.8}{13}{Occupancy Grid Mapping}{equation.2.8}{}}
\newlabel{bayodds}{{2.9}{13}{Occupancy Grid Mapping}{equation.2.9}{}}
\newlabel{logodds}{{2.10}{13}{Occupancy Grid Mapping}{equation.2.10}{}}
\mph@setcol{ii:13}{\mph@nr}
\citation{probrob}
\citation{simonthesis}
\citation{simonthesis}
\citation{thrun-occ}
\newlabel{logodds}{{2.11}{14}{Occupancy Grid Mapping}{equation.2.11}{}}
\@writefile{lof}{\contentsline {figure}{\numberline {2.2}{\ignorespaces Inverse sensor model example}}{14}{figure.caption.17}}
\newlabel{topomap}{{2.2}{14}{Inverse sensor model example}{figure.caption.17}{}}
\mph@setcol{ii:14}{\mph@nr}
\citation{simonthesis}
\citation{simonthesis}
\acronymused{OGM}
\@writefile{lol}{\contentsline {lstlisting}{\numberline {2.1}Occupancy grid map update algorithm.}{15}{lstlisting.2.1}}
\newlabel{OG}{{2.1}{15}{Occupancy Grid Mapping}{lstlisting.2.1}{}}
\acronymused{OGM}
\@writefile{toc}{\contentsline {section}{\numberline {2.1.2}Shortcomings of Occupancy Grid Mapping}{15}{section.2.1.2}}
\acronymused{OGM}
\mph@setcol{ii:15}{\mph@nr}
\@writefile{lof}{\contentsline {figure}{\numberline {2.3}{\ignorespaces Occupancy grid map example}}{16}{figure.caption.18}}
\newlabel{ogmap}{{2.3}{16}{Occupancy grid map example}{figure.caption.18}{}}
\acronymused{OGM}
\acronymused{OGM}
\mph@setcol{ii:16}{\mph@nr}
\citation{mackay}
\citation{gpml}
\citation{gpml}
\citation{gpml}
\@writefile{toc}{\contentsline {chapter}{\numberline {2.2}\spacedlowsmallcaps  {Gaussian Processes}}{17}{chapter.2.2}}
\@writefile{lof}{\addvspace {10\p@ }}
\@writefile{lot}{\addvspace {10\p@ }}
\@writefile{lol}{\addvspace {10\p@ }}
\newlabel{gapr}{{2.1.2}{17}{Shortcomings of Occupancy Grid Mapping}{chapter.2.2}{}}
\undonewlabel{acro:GP}
\newlabel{acro:GP}{{2.1.2}{17}{Shortcomings of Occupancy Grid Mapping}{section*.19}{}}
\acronymused{GP}
\acronymused{GP}
\acronymused{GP}
\acronymused{GP}
\mph@setcol{ii:17}{\mph@nr}
\@writefile{lof}{\contentsline {figure}{\numberline {2.4}{\ignorespaces Visual representation of a Gaussian process}}{18}{figure.caption.20}}
\acronymused{GP}
\newlabel{gp}{{2.4}{18}{Visual representation of a Gaussian process}{figure.caption.20}{}}
\acronymused{GP}
\acronymused{GP}
\mph@setcol{ii:18}{\mph@nr}
\citation{mackay}
\newlabel{mkdef}{{2.12}{19}{Shortcomings of Occupancy Grid Mapping}{equation.2.12}{}}
\acronymused{GP}
\newlabel{gpdef}{{2.13}{19}{Shortcomings of Occupancy Grid Mapping}{equation.2.13}{}}
\pp@pagectr{footnote}{2}{37}{19}
\acronymused{GP}
\newlabel{probs}{{2.14}{19}{Shortcomings of Occupancy Grid Mapping}{equation.2.14}{}}
\mph@setcol{ii:19}{\mph@nr}
\acronymused{GP}
\@writefile{toc}{\contentsline {section}{\numberline {2.2.1}Gaussian Process Regression}{20}{section.2.2.1}}
\newlabel{secGPR}{{2.2.1}{20}{Gaussian Process Regression}{section.2.2.1}{}}
\acronymused{GP}
\acronymused{GP}
\newlabel{mats}{{2.15}{20}{Gaussian Process Regression}{equation.2.15}{}}
\mph@setcol{ii:20}{\mph@nr}
\newlabel{pred}{{2.16}{21}{Gaussian Process Regression}{equation.2.16}{}}
\newlabel{matsn}{{2.18}{21}{Gaussian Process Regression}{equation.2.18}{}}
\mph@setcol{ii:21}{\mph@nr}
\citation{gpml}
\newlabel{predn}{{2.19}{22}{Gaussian Process Regression}{equation.2.19}{}}
\newlabel{predn}{{2.20}{22}{Gaussian Process Regression}{equation.2.20}{}}
\newlabel{mean}{{2.21}{22}{Gaussian Process Regression}{equation.2.21}{}}
\acronymused{GP}
\mph@setcol{ii:22}{\mph@nr}
\citation{kernels}
\@writefile{lol}{\contentsline {lstlisting}{\numberline {2.2}Gaussian process regression algorithm.}{23}{lstlisting.2.2}}
\newlabel{GPR}{{2.2}{23}{Gaussian Process Regression}{lstlisting.2.2}{}}
\@writefile{toc}{\contentsline {section}{\numberline {2.2.2}Covariance Functions}{23}{section.2.2.2}}
\newlabel{scovfun}{{2.2.2}{23}{Covariance Functions}{section.2.2.2}{}}
\undonewlabel{acro:ML}
\newlabel{acro:ML}{{2.2.2}{23}{Covariance Functions}{section*.21}{}}
\acronymused{ML}
\mph@setcol{ii:23}{\mph@nr}
\citation{gpml}
\undonewlabel{acro:PSD}
\newlabel{acro:PSD}{{2.2.2}{24}{Covariance Functions}{section*.22}{}}
\acronymused{PSD}
\acronymused{PSD}
\acronymused{GP}
\acronymused{ML}
\mph@setcol{ii:24}{\mph@nr}
\citation{stein}
\@writefile{toc}{\contentsline {subsection}{\numberline {a.}Stationary covariance functions}{25}{subsection.2.2.2.1}}
\newlabel{statker}{{a.}{25}{Stationary covariance functions}{subsection.2.2.2.1}{}}
\newlabel{sqexp}{{2.23}{25}{Stationary covariance functions}{equation.2.23}{}}
\mph@setcol{ii:25}{\mph@nr}
\citation{besselref}
\newlabel{mat}{{2.24}{26}{Stationary covariance functions}{equation.2.24}{}}
\newlabel{mat35}{{2.25}{26}{Stationary covariance functions}{equation.2.25}{}}
\@writefile{toc}{\contentsline {subsection}{\numberline {b.}Non-stationary Covariance Functions}{26}{subsection.2.2.2.2}}
\mph@setcol{ii:26}{\mph@nr}
\citation{kpca}
\citation{neal}
\citation{horn}
\pp@pagectr{footnote}{3}{45}{27}
\newlabel{poly}{{2.26}{27}{Non-stationary Covariance Functions}{equation.2.26}{}}
\undonewlabel{acro:PCA}
\newlabel{acro:PCA}{{b.}{27}{Non-stationary Covariance Functions}{section*.23}{}}
\acronymused{PCA}
\acronymused{PCA}
\acronymused{iid}
\mph@setcol{ii:27}{\mph@nr}
\citation{will}
\citation{kernelclasses}
\citation{kernelml}
\citation{kernels}
\acronymused{iid}
\acronymused{NN}
\newlabel{nn}{{2.30}{28}{Non-stationary Covariance Functions}{equation.2.30}{}}
\acronymused{GP}
\mph@setcol{ii:28}{\mph@nr}
\citation{mackay}
\@writefile{toc}{\contentsline {section}{\numberline {2.2.3}Gaussian Process Learning}{29}{section.2.2.3}}
\newlabel{slearn}{{2.2.3}{29}{Gaussian Process Learning}{section.2.2.3}{}}
\acronymused{GP}
\newlabel{marglike}{{2.31}{29}{Gaussian Process Learning}{equation.2.31}{}}
\mph@setcol{ii:29}{\mph@nr}
\newlabel{postth}{{2.33}{30}{Gaussian Process Learning}{equation.2.33}{}}
\newlabel{marglike}{{2.34}{30}{Gaussian Process Learning}{equation.2.34}{}}
\newlabel{marglike}{{2.35}{30}{Gaussian Process Learning}{equation.2.35}{}}
\@writefile{toc}{\contentsline {section}{\numberline {2.2.4}Shortcomings of Gaussian Processes}{30}{section.2.2.4}}
\mph@setcol{ii:30}{\mph@nr}
\@writefile{toc}{\contentsline {chapter}{\numberline {2.3}\spacedlowsmallcaps  {Summary}}{31}{chapter.2.3}}
\@writefile{lof}{\addvspace {10\p@ }}
\@writefile{lot}{\addvspace {10\p@ }}
\@writefile{lol}{\addvspace {10\p@ }}
\newlabel{sum2}{{2.2.4}{31}{Shortcomings of Gaussian Processes}{chapter.2.3}{}}
\acronymused{OGM}
\mph@setcol{ii:31}{\mph@nr}
\mph@setcol{ii:32}{\mph@nr}
\@setckpt{Chapters/Chapter02}{
\setcounter{page}{33}
\setcounter{equation}{35}
\setcounter{enumi}{2}
\setcounter{enumii}{0}
\setcounter{enumiii}{0}
\setcounter{enumiv}{0}
\setcounter{footnote}{0}
\setcounter{mpfootnote}{0}
\setcounter{part}{2}
\setcounter{chapter}{3}
\setcounter{section}{0}
\setcounter{subsection}{0}
\setcounter{subsubsection}{0}
\setcounter{paragraph}{0}
\setcounter{subparagraph}{0}
\setcounter{figure}{4}
\setcounter{table}{0}
\setcounter{dummy}{7}
\setcounter{lips@count}{0}
\setcounter{NAT@ctr}{0}
\setcounter{parentequation}{0}
\setcounter{ContinuedFloat}{0}
\setcounter{KVtest}{0}
\setcounter{subfigure}{0}
\setcounter{subfigure@save}{4}
\setcounter{lofdepth}{1}
\setcounter{subtable}{0}
\setcounter{subtable@save}{0}
\setcounter{lotdepth}{1}
\setcounter{lstnumber}{12}
\setcounter{Item}{2}
\setcounter{bookmark@seq@number}{23}
\setcounter{listings}{0}
\setcounter{loldepth}{1}
\setcounter{pp@a@footnote}{3}
\setcounter{lstlisting}{2}
\setcounter{section@level}{0}
}
