\relax 
\providecommand\hyper@newdestlabel[2]{}
\newlabel{ch:introduction}{{1}{2}{Declaration}{part.1}{}}
\@writefile{toc}{\contentsline {chapter}{\numberline {1.1}\spacedlowsmallcaps  {Motivation}}{2}{chapter.1.1}}
\@writefile{lof}{\addvspace {10\p@ }}
\@writefile{lot}{\addvspace {10\p@ }}
\@writefile{lol}{\addvspace {10\p@ }}
\mph@setcol{ii:2}{\mph@nr}
\citation{DEM}
\citation{moravekelfes}
\citation{moravek,elfes}
\citation{simonthesis}
\citation{simonthesis}
\@writefile{toc}{\contentsline {chapter}{\numberline {1.2}\spacedlowsmallcaps  {Problem Description}}{3}{chapter.1.2}}
\@writefile{lof}{\addvspace {10\p@ }}
\@writefile{lot}{\addvspace {10\p@ }}
\@writefile{lol}{\addvspace {10\p@ }}
\undonewlabel{acro:DEM}
\newlabel{acro:DEM}{{1}{3}{Declaration}{section*.9}{}}
\acronymused{DEM}
\undonewlabel{acro:OGM}
\newlabel{acro:OGM}{{1}{3}{Declaration}{section*.10}{}}
\acronymused{OGM}
\mph@setcol{ii:3}{\mph@nr}
\@writefile{lof}{\contentsline {figure}{\numberline {1.1}{\ignorespaces Comparison: grid and continuous occupancy maps}}{4}{figure.caption.11}}
\providecommand*\caption@xref[2]{\@setref\relax\@undefined{#1}}
\newlabel{ogmcom}{{1.1}{4}{Comparison: grid and continuous occupancy maps}{figure.caption.11}{}}
\@writefile{lof}{\contentsline {subfigure}{\numberline{(a)}{\ignorespaces {Input data and ground truth.}}}{4}{subfigure.1.1}}
\@writefile{lof}{\contentsline {subfigure}{\numberline{(b)}{\ignorespaces {Occupancy grid map.}}}{4}{subfigure.1.2}}
\@writefile{lof}{\contentsline {subfigure}{\numberline{(c)}{\ignorespaces {Continuous occupancy map.}}}{4}{subfigure.1.3}}
\@writefile{lof}{\contentsline {subfigure}{\numberline{(d)}{\ignorespaces {Associated variance.}}}{4}{subfigure.1.4}}
\acronymused{OGM}
\mph@setcol{ii:4}{\mph@nr}
\undonewlabel{acro:GP}
\newlabel{acro:GP}{{1}{5}{Declaration}{section*.12}{}}
\acronymused{GP}
\acronymused{GP}
\@writefile{toc}{\contentsline {chapter}{\numberline {1.3}\spacedlowsmallcaps  {Challenges and Contributions}}{5}{chapter.1.3}}
\@writefile{lof}{\addvspace {10\p@ }}
\@writefile{lot}{\addvspace {10\p@ }}
\@writefile{lol}{\addvspace {10\p@ }}
\acronymused{GP}
\mph@setcol{ii:5}{\mph@nr}
\citation{simonthesis}
\acronymused{GP}
\@writefile{toc}{\contentsline {chapter}{\numberline {1.4}\spacedlowsmallcaps  {Thesis Overview}}{6}{chapter.1.4}}
\@writefile{lof}{\addvspace {10\p@ }}
\@writefile{lot}{\addvspace {10\p@ }}
\@writefile{lol}{\addvspace {10\p@ }}
\acronymused{GPOMIK}
\mph@setcol{ii:6}{\mph@nr}
\@setckpt{Chapters/Chapter01}{
\setcounter{page}{7}
\setcounter{equation}{0}
\setcounter{enumi}{0}
\setcounter{enumii}{0}
\setcounter{enumiii}{0}
\setcounter{enumiv}{0}
\setcounter{footnote}{0}
\setcounter{mpfootnote}{0}
\setcounter{part}{1}
\setcounter{chapter}{4}
\setcounter{section}{0}
\setcounter{subsection}{0}
\setcounter{subsubsection}{0}
\setcounter{paragraph}{0}
\setcounter{subparagraph}{0}
\setcounter{figure}{1}
\setcounter{table}{0}
\setcounter{dummy}{7}
\setcounter{lips@count}{0}
\setcounter{NAT@ctr}{0}
\setcounter{parentequation}{0}
\setcounter{ContinuedFloat}{0}
\setcounter{KVtest}{0}
\setcounter{subfigure}{0}
\setcounter{subfigure@save}{4}
\setcounter{lofdepth}{1}
\setcounter{subtable}{0}
\setcounter{subtable@save}{0}
\setcounter{lotdepth}{1}
\setcounter{lstnumber}{1}
\setcounter{Item}{0}
\setcounter{bookmark@seq@number}{13}
\setcounter{listings}{0}
\setcounter{loldepth}{1}
\setcounter{pp@a@footnote}{0}
\setcounter{lstlisting}{0}
\setcounter{section@level}{0}
}
