\relax 
\providecommand\hyper@newdestlabel[2]{}
\newlabel{conclusion}{{5}{78}{Real Data}{part.5}{}}
\@writefile{toc}{\contentsline {chapter}{\numberline {5.1}\spacedlowsmallcaps  {Contributions}}{78}{chapter.5.1}}
\@writefile{lof}{\addvspace {10\p@ }}
\@writefile{lot}{\addvspace {10\p@ }}
\@writefile{lol}{\addvspace {10\p@ }}
\undonewlabel{acro:GPOM}
\newlabel{acro:GPOM}{{5}{78}{Real Data}{section*.68}{}}
\acronymused{GPOM}
\undonewlabel{acro:GP}
\newlabel{acro:GP}{{5}{78}{Real Data}{section*.69}{}}
\acronymused{GP}
\acronymused{GP}
\acronymused{GP}
\mph@setcol{ii:78}{\mph@nr}
\undonewlabel{acro:MSK-GP}
\newlabel{acro:MSK-GP}{{5}{79}{Real Data}{section*.70}{}}
\acronymused{MSK-GP}
\undonewlabel{acro:GPOMIK}
\newlabel{acro:GPOMIK}{{5}{79}{Real Data}{section*.71}{}}
\acronymused{GPOMIK}
\acronymused{GPOM}
\acronymused{GP}
\@writefile{toc}{\contentsline {chapter}{\numberline {5.2}\spacedlowsmallcaps  {Future Work}}{79}{chapter.5.2}}
\@writefile{lof}{\addvspace {10\p@ }}
\@writefile{lot}{\addvspace {10\p@ }}
\@writefile{lol}{\addvspace {10\p@ }}
\mph@setcol{ii:79}{\mph@nr}
\undonewlabel{acro:MSK}
\newlabel{acro:MSK}{{5}{80}{}{section*.72}{}}
\acronymused{MSK}
\mph@setcol{ii:80}{\mph@nr}
\mph@setcol{ii:81}{\mph@nr}
\@setckpt{Chapters/Chapter05}{
\setcounter{page}{82}
\setcounter{equation}{0}
\setcounter{enumi}{2}
\setcounter{enumii}{0}
\setcounter{enumiii}{0}
\setcounter{enumiv}{0}
\setcounter{footnote}{0}
\setcounter{mpfootnote}{0}
\setcounter{part}{5}
\setcounter{chapter}{2}
\setcounter{section}{0}
\setcounter{subsection}{0}
\setcounter{subsubsection}{0}
\setcounter{paragraph}{0}
\setcounter{subparagraph}{0}
\setcounter{figure}{0}
\setcounter{table}{0}
\setcounter{dummy}{7}
\setcounter{lips@count}{0}
\setcounter{NAT@ctr}{0}
\setcounter{parentequation}{0}
\setcounter{ContinuedFloat}{0}
\setcounter{KVtest}{0}
\setcounter{subfigure}{0}
\setcounter{subfigure@save}{6}
\setcounter{lofdepth}{1}
\setcounter{subtable}{0}
\setcounter{subtable@save}{0}
\setcounter{lotdepth}{1}
\setcounter{lstnumber}{14}
\setcounter{Item}{2}
\setcounter{bookmark@seq@number}{43}
\setcounter{listings}{0}
\setcounter{loldepth}{1}
\setcounter{pp@a@footnote}{6}
\setcounter{lstlisting}{0}
\setcounter{section@level}{0}
}
