\relax 
\providecommand\hyper@newdestlabel[2]{}
\newlabel{experiments}{{4}{58}{Mapping with a Synthetic Dataset}{part.4}{}}
\@writefile{toc}{\contentsline {chapter}{\numberline {4.1}\spacedlowsmallcaps  {Introduction}}{58}{chapter.4.1}}
\@writefile{lof}{\addvspace {10\p@ }}
\@writefile{lot}{\addvspace {10\p@ }}
\@writefile{lol}{\addvspace {10\p@ }}
\undonewlabel{acro:MSK}
\newlabel{acro:MSK}{{4}{58}{Mapping with a Synthetic Dataset}{section*.44}{}}
\acronymused{MSK}
\undonewlabel{acro:GP}
\newlabel{acro:GP}{{4}{58}{Mapping with a Synthetic Dataset}{section*.45}{}}
\acronymused{GP}
\acronymused{MSK}
\undonewlabel{acro:GPOM}
\newlabel{acro:GPOM}{{4}{58}{Mapping with a Synthetic Dataset}{section*.46}{}}
\acronymused{GPOM}
\undonewlabel{acro:MSK-GPOM}
\newlabel{acro:MSK-GPOM}{{4}{58}{Mapping with a Synthetic Dataset}{section*.47}{}}
\acronymused{MSK-GPOM}
\undonewlabel{acro:GPOMIK}
\newlabel{acro:GPOMIK}{{4}{58}{Mapping with a Synthetic Dataset}{section*.48}{}}
\acronymused{GPOMIK}
\undonewlabel{acro:ROC}
\newlabel{acro:ROC}{{4}{58}{}{section*.49}{}}
\mph@setcol{ii:58}{\mph@nr}
\acronymused{ROC}
\undonewlabel{acro:FPR}
\newlabel{acro:FPR}{{4}{59}{}{section*.50}{}}
\acronymused{FPR}
\undonewlabel{acro:TPR}
\newlabel{acro:TPR}{{4}{59}{}{section*.51}{}}
\acronymused{TPR}
\@writefile{toc}{\contentsline {chapter}{\numberline {4.2}\spacedlowsmallcaps  {Parameters of the Model}}{59}{chapter.4.2}}
\@writefile{lof}{\addvspace {10\p@ }}
\@writefile{lot}{\addvspace {10\p@ }}
\@writefile{lol}{\addvspace {10\p@ }}
\newlabel{parmo}{{4}{59}{}{chapter.4.2}{}}
\@writefile{toc}{\contentsline {subsection}{\numberline {a.}Element Generation}{59}{subsection.4.2.0.1}}
\mph@setcol{ii:59}{\mph@nr}
\citation{simonthesis}
\acronymused{GP}
\@writefile{toc}{\contentsline {subsection}{\numberline {b.}Covariance Function}{60}{subsection.4.2.0.2}}
\@writefile{toc}{\contentsline {subsection}{\numberline {c.}Optimiser}{60}{subsection.4.2.0.3}}
\acronymused{GP}
\undonewlabel{acro:BFGS}
\newlabel{acro:BFGS}{{c.}{60}{Optimiser}{section*.53}{}}
\acronymused{BFGS}
\mph@setcol{ii:60}{\mph@nr}
\newlabel{gt}{{4.1a}{61}{Subfigure 4.2 4.1a}{subfigure.4.1.1}{}}
\newlabel{sub@gt}{{(a)}{a}{Subfigure 4.2 4.1a\relax }{subfigure.4.1.1}{}}
\@writefile{lof}{\contentsline {figure}{\numberline {4.1}{\ignorespaces Element size threshold impact on element generation.}}{61}{figure.caption.52}}
\newlabel{input}{{4.1}{61}{Element size threshold impact on element generation}{figure.caption.52}{}}
\@writefile{lof}{\contentsline {subfigure}{\numberline{(a)}{\ignorespaces {Ground truth}}}{61}{subfigure.1.1}}
\@writefile{lof}{\contentsline {subfigure}{\numberline{(b)}{\ignorespaces {Dataset: free (green) and occupied (red) points}}}{61}{subfigure.1.2}}
\@writefile{lof}{\contentsline {subfigure}{\numberline{(c)}{\ignorespaces {Elements, threshold=0.5}}}{61}{subfigure.1.3}}
\@writefile{lof}{\contentsline {subfigure}{\numberline{(d)}{\ignorespaces {Elements, threshold=1.0}}}{61}{subfigure.1.4}}
\@writefile{lof}{\contentsline {subfigure}{\numberline{(e)}{\ignorespaces {Elements, threshold=2.0}}}{61}{subfigure.1.5}}
\@writefile{lof}{\contentsline {subfigure}{\numberline{(f)}{\ignorespaces {Elements, threshold=4.0}}}{61}{subfigure.1.6}}
\mph@setcol{ii:61}{\mph@nr}
\@writefile{lot}{\contentsline {table}{\numberline {4.1}{\ignorespaces Influence of parameters on MSK-GPOM learning time}}{62}{table.caption.54}}
\newlabel{traintime}{{4.1}{62}{Influence of parameters on MSK-GPOM learning time}{table.caption.54}{}}
\mph@setcol{ii:62}{\mph@nr}
\@writefile{lot}{\contentsline {table}{\numberline {4.2}{\ignorespaces Influence of parameters on MSK-GPOM performance}}{63}{table.caption.55}}
\newlabel{runtime}{{4.2}{63}{Influence of parameters on MSK-GPOM performance}{table.caption.55}{}}
\mph@setcol{ii:63}{\mph@nr}
\newlabel{elsp}{{4.2c}{64}{Subfigure 4.2 4.2c}{subfigure.4.2.3}{}}
\newlabel{sub@elsp}{{(c)}{c}{Subfigure 4.2 4.2c\relax }{subfigure.4.2.3}{}}
\@writefile{lof}{\contentsline {figure}{\numberline {4.2}{\ignorespaces Map generation process}}{64}{figure.caption.56}}
\newlabel{sqexp}{{4.2}{64}{Map generation process}{figure.caption.56}{}}
\@writefile{lof}{\contentsline {subfigure}{\numberline{(a)}{\ignorespaces {Initial Dataset}}}{64}{subfigure.2.1}}
\@writefile{lof}{\contentsline {subfigure}{\numberline{(b)}{\ignorespaces {Free and occupied points}}}{64}{subfigure.2.2}}
\@writefile{lof}{\contentsline {subfigure}{\numberline{(c)}{\ignorespaces {Input Elements}}}{64}{subfigure.2.3}}
\@writefile{lof}{\contentsline {subfigure}{\numberline{(d)}{\ignorespaces {Prob. Occupancy}}}{64}{subfigure.2.4}}
\@writefile{lof}{\contentsline {subfigure}{\numberline{(e)}{\ignorespaces {Predictive Variance}}}{64}{subfigure.2.5}}
\@writefile{lof}{\contentsline {subfigure}{\numberline{(f)}{\ignorespaces {Occupancy Map}}}{64}{subfigure.2.6}}
\mph@setcol{ii:64}{\mph@nr}
\@writefile{lof}{\contentsline {figure}{\numberline {4.3}{\ignorespaces Map generation process}}{65}{figure.caption.57}}
\newlabel{mat3}{{4.3}{65}{Map generation process}{figure.caption.57}{}}
\@writefile{lof}{\contentsline {subfigure}{\numberline{(a)}{\ignorespaces {Initial Dataset}}}{65}{subfigure.3.1}}
\@writefile{lof}{\contentsline {subfigure}{\numberline{(b)}{\ignorespaces {Free and occupied points}}}{65}{subfigure.3.2}}
\@writefile{lof}{\contentsline {subfigure}{\numberline{(c)}{\ignorespaces {Input Elements}}}{65}{subfigure.3.3}}
\@writefile{lof}{\contentsline {subfigure}{\numberline{(d)}{\ignorespaces {Prob. Occupancy}}}{65}{subfigure.3.4}}
\@writefile{lof}{\contentsline {subfigure}{\numberline{(e)}{\ignorespaces {Predictive Variance}}}{65}{subfigure.3.5}}
\@writefile{lof}{\contentsline {subfigure}{\numberline{(f)}{\ignorespaces {Occupancy Map}}}{65}{subfigure.3.6}}
\mph@setcol{ii:65}{\mph@nr}
\citation{simonthesis}
\citation{simonaaai}
\citation{simonthesis}
\citation{simonaaai}
\@writefile{toc}{\contentsline {chapter}{\numberline {4.3}\spacedlowsmallcaps  {Benchmarks}}{66}{chapter.4.3}}
\@writefile{lof}{\addvspace {10\p@ }}
\@writefile{lot}{\addvspace {10\p@ }}
\@writefile{lol}{\addvspace {10\p@ }}
\newlabel{bench}{{c.}{66}{}{chapter.4.3}{}}
\acronymused{GPOMIK}
\acronymused{GPOMIK}
\acronymused{GPOM}
\acronymused{MSK-GPOM}
\@writefile{toc}{\contentsline {section}{\numberline {4.3.1}Synthetic Data}{66}{section.4.3.1}}
\acronymused{MSK-GPOM}
\acronymused{GPOMIK}
\mph@setcol{ii:66}{\mph@nr}
\@writefile{lof}{\contentsline {figure}{\numberline {4.4}{\ignorespaces Benchmark dataset and inputs.\relax }}{67}{figure.caption.58}}
\newlabel{inputsies}{{4.4}{67}{Benchmark dataset and inputs.\relax }{figure.caption.58}{}}
\@writefile{lof}{\contentsline {subfigure}{\numberline{(a)}{\ignorespaces {Ground truth}}}{67}{subfigure.4.1}}
\@writefile{lof}{\contentsline {subfigure}{\numberline{(b)}{\ignorespaces {Rangefinder data: free beams and hits.}}}{67}{subfigure.4.2}}
\@writefile{lof}{\contentsline {subfigure}{\numberline{(c)}{\ignorespaces {Free points in green, occupied in red.}}}{67}{subfigure.4.3}}
\@writefile{lof}{\contentsline {subfigure}{\numberline{(d)}{\ignorespaces {Dataset partitioned into elements.}}}{67}{subfigure.4.4}}
\@writefile{lof}{\contentsline {subfigure}{\numberline{(e)}{\ignorespaces {Beams and hits chosen by active sampling for the squared exponential kernel.}}}{67}{subfigure.4.5}}
\@writefile{lof}{\contentsline {subfigure}{\numberline{(f)}{\ignorespaces {Beams and hits chosen by active sampling for the Mat\'ern 3 kernel.}}}{67}{subfigure.4.6}}
\mph@setcol{ii:67}{\mph@nr}
\@writefile{lot}{\contentsline {table}{\numberline {4.3}{\ignorespaces MSK-GPOM versus GPOMIK benchmark}}{68}{table.caption.59}}
\newlabel{benchmark}{{4.3}{68}{MSK-GPOM versus GPOMIK benchmark}{table.caption.59}{}}
\@writefile{lof}{\contentsline {figure}{\numberline {4.5}{\ignorespaces ROC curves for the synthetic dataset}}{68}{figure.caption.60}}
\newlabel{roc}{{4.5}{68}{ROC curves for the synthetic dataset}{figure.caption.60}{}}
\@writefile{lof}{\contentsline {subfigure}{\numberline{(a)}{\ignorespaces {Squared exponential kernel}}}{68}{subfigure.5.1}}
\@writefile{lof}{\contentsline {subfigure}{\numberline{(b)}{\ignorespaces {Mat\'ern 3 kernel}}}{68}{subfigure.5.2}}
\mph@setcol{ii:68}{\mph@nr}
\@writefile{lof}{\contentsline {figure}{\numberline {4.6}{\ignorespaces GPOMIK outputs for synthetic dataset}}{69}{figure.caption.61}}
\newlabel{gpomik}{{4.6}{69}{GPOMIK outputs for synthetic dataset}{figure.caption.61}{}}
\@writefile{lof}{\contentsline {subfigure}{\numberline{(a)}{\ignorespaces {Probability of Occupancy}}}{69}{subfigure.6.1}}
\@writefile{lof}{\contentsline {subfigure}{\numberline{(b)}{\ignorespaces {Probability of Occupancy}}}{69}{subfigure.6.2}}
\@writefile{lof}{\contentsline {subfigure}{\numberline{(c)}{\ignorespaces {Predictive Variance}}}{69}{subfigure.6.3}}
\@writefile{lof}{\contentsline {subfigure}{\numberline{(d)}{\ignorespaces {Predictive Variance}}}{69}{subfigure.6.4}}
\@writefile{lof}{\contentsline {subfigure}{\numberline{(e)}{\ignorespaces {Occupancy Map}}}{69}{subfigure.6.5}}
\@writefile{lof}{\contentsline {subfigure}{\numberline{(f)}{\ignorespaces {Occupancy Map}}}{69}{subfigure.6.6}}
\mph@setcol{ii:69}{\mph@nr}
\@writefile{lof}{\contentsline {figure}{\numberline {4.7}{\ignorespaces MSK-GPOM outputs for synthetic dataset}}{70}{figure.caption.62}}
\newlabel{mskgpom}{{4.7}{70}{MSK-GPOM outputs for synthetic dataset}{figure.caption.62}{}}
\@writefile{lof}{\contentsline {subfigure}{\numberline{(a)}{\ignorespaces {Probability of Occupancy}}}{70}{subfigure.7.1}}
\@writefile{lof}{\contentsline {subfigure}{\numberline{(b)}{\ignorespaces {Probability of Occupancy}}}{70}{subfigure.7.2}}
\@writefile{lof}{\contentsline {subfigure}{\numberline{(c)}{\ignorespaces {Predictive Variance}}}{70}{subfigure.7.3}}
\@writefile{lof}{\contentsline {subfigure}{\numberline{(d)}{\ignorespaces {Predictive Variance}}}{70}{subfigure.7.4}}
\@writefile{lof}{\contentsline {subfigure}{\numberline{(e)}{\ignorespaces {Occupancy Map}}}{70}{subfigure.7.5}}
\@writefile{lof}{\contentsline {subfigure}{\numberline{(f)}{\ignorespaces {Occupancy Map}}}{70}{subfigure.7.6}}
\mph@setcol{ii:70}{\mph@nr}
\citation{stachniss}
\citation{simonaaai}
\@writefile{toc}{\contentsline {section}{\numberline {4.3.2}Real Data}{71}{section.4.3.2}}
\acronymused{GPOMIK}
\acronymused{MSK-GPOM}
\pp@pagectr{footnote}{6}{89}{71}
\acronymused{BFGS}
\acronymused{GP}
\mph@setcol{ii:71}{\mph@nr}
\@writefile{lof}{\contentsline {figure}{\numberline {4.8}{\ignorespaces Rangefinder data and inputs for each method.\relax }}{72}{figure.caption.63}}
\newlabel{realinput}{{4.8}{72}{Rangefinder data and inputs for each method.\relax }{figure.caption.63}{}}
\@writefile{lof}{\contentsline {subfigure}{\numberline{(a)}{\ignorespaces {Rangefinder data}}}{72}{subfigure.8.1}}
\@writefile{lof}{\contentsline {subfigure}{\numberline{(b)}{\ignorespaces {Elements, threshold=1}}}{72}{subfigure.8.2}}
\@writefile{lof}{\contentsline {subfigure}{\numberline{(c)}{\ignorespaces {Active set (squared exponential kernel)}}}{72}{subfigure.8.3}}
\@writefile{lof}{\contentsline {subfigure}{\numberline{(d)}{\ignorespaces {Active set (Mat\'ern 3 kernel)}}}{72}{subfigure.8.4}}
\mph@setcol{ii:72}{\mph@nr}
\@writefile{lot}{\contentsline {table}{\numberline {4.4}{\ignorespaces MSK-GPOM versus GPOMIK benchmark}}{73}{table.caption.64}}
\newlabel{realbenchmark}{{4.4}{73}{MSK-GPOM versus GPOMIK benchmark}{table.caption.64}{}}
\@writefile{lof}{\contentsline {figure}{\numberline {4.9}{\ignorespaces ROC curves for the Belgioioso Castle dataset}}{73}{figure.caption.65}}
\newlabel{realroc}{{4.9}{73}{ROC curves for the Belgioioso Castle dataset}{figure.caption.65}{}}
\@writefile{lof}{\contentsline {subfigure}{\numberline{(a)}{\ignorespaces {Squared exponential kernel}}}{73}{subfigure.9.1}}
\@writefile{lof}{\contentsline {subfigure}{\numberline{(b)}{\ignorespaces {Mat\'ern 3 kernel}}}{73}{subfigure.9.2}}
\mph@setcol{ii:73}{\mph@nr}
\@writefile{lof}{\contentsline {figure}{\numberline {4.10}{\ignorespaces GPOMIK outputs for real dataset}}{74}{figure.caption.66}}
\newlabel{realgpomik}{{4.10}{74}{GPOMIK outputs for real dataset}{figure.caption.66}{}}
\@writefile{lof}{\contentsline {subfigure}{\numberline{(a)}{\ignorespaces {Probability of Occupancy}}}{74}{subfigure.10.1}}
\@writefile{lof}{\contentsline {subfigure}{\numberline{(b)}{\ignorespaces {Probability of Occupancy}}}{74}{subfigure.10.2}}
\@writefile{lof}{\contentsline {subfigure}{\numberline{(c)}{\ignorespaces {Predictive Variance}}}{74}{subfigure.10.3}}
\@writefile{lof}{\contentsline {subfigure}{\numberline{(d)}{\ignorespaces {Predictive Variance}}}{74}{subfigure.10.4}}
\@writefile{lof}{\contentsline {subfigure}{\numberline{(e)}{\ignorespaces {Occupancy Map}}}{74}{subfigure.10.5}}
\@writefile{lof}{\contentsline {subfigure}{\numberline{(f)}{\ignorespaces {Occupancy Map}}}{74}{subfigure.10.6}}
\mph@setcol{ii:74}{\mph@nr}
\@writefile{lof}{\contentsline {figure}{\numberline {4.11}{\ignorespaces MSK-GPOM outputs for real dataset}}{75}{figure.caption.67}}
\newlabel{realmskgpom}{{4.11}{75}{MSK-GPOM outputs for real dataset}{figure.caption.67}{}}
\@writefile{lof}{\contentsline {subfigure}{\numberline{(a)}{\ignorespaces {Probability of Occupancy}}}{75}{subfigure.11.1}}
\@writefile{lof}{\contentsline {subfigure}{\numberline{(b)}{\ignorespaces {Probability of Occupancy}}}{75}{subfigure.11.2}}
\@writefile{lof}{\contentsline {subfigure}{\numberline{(c)}{\ignorespaces {Predictive Variance}}}{75}{subfigure.11.3}}
\@writefile{lof}{\contentsline {subfigure}{\numberline{(d)}{\ignorespaces {Predictive Variance}}}{75}{subfigure.11.4}}
\@writefile{lof}{\contentsline {subfigure}{\numberline{(e)}{\ignorespaces {Occupancy Map}}}{75}{subfigure.11.5}}
\@writefile{lof}{\contentsline {subfigure}{\numberline{(f)}{\ignorespaces {Occupancy Map}}}{75}{subfigure.11.6}}
\mph@setcol{ii:75}{\mph@nr}
\@writefile{toc}{\contentsline {chapter}{\numberline {4.4}\spacedlowsmallcaps  {Summary}}{76}{chapter.4.4}}
\@writefile{lof}{\addvspace {10\p@ }}
\@writefile{lot}{\addvspace {10\p@ }}
\@writefile{lol}{\addvspace {10\p@ }}
\acronymused{MSK-GPOM}
\acronymused{GPOMIK}
\acronymused{GPOMIK}
\acronymused{MSK-GPOM}
\mph@setcol{ii:76}{\mph@nr}
\@setckpt{Chapters/Chapter04}{
\setcounter{page}{77}
\setcounter{equation}{0}
\setcounter{enumi}{2}
\setcounter{enumii}{0}
\setcounter{enumiii}{0}
\setcounter{enumiv}{0}
\setcounter{footnote}{0}
\setcounter{mpfootnote}{0}
\setcounter{part}{4}
\setcounter{chapter}{4}
\setcounter{section}{0}
\setcounter{subsection}{0}
\setcounter{subsubsection}{0}
\setcounter{paragraph}{0}
\setcounter{subparagraph}{0}
\setcounter{figure}{11}
\setcounter{table}{4}
\setcounter{dummy}{7}
\setcounter{lips@count}{0}
\setcounter{NAT@ctr}{0}
\setcounter{parentequation}{0}
\setcounter{ContinuedFloat}{0}
\setcounter{KVtest}{0}
\setcounter{subfigure}{0}
\setcounter{subfigure@save}{6}
\setcounter{lofdepth}{1}
\setcounter{subtable}{0}
\setcounter{subtable@save}{0}
\setcounter{lotdepth}{1}
\setcounter{lstnumber}{14}
\setcounter{Item}{2}
\setcounter{bookmark@seq@number}{40}
\setcounter{listings}{0}
\setcounter{loldepth}{1}
\setcounter{pp@a@footnote}{6}
\setcounter{lstlisting}{0}
\setcounter{section@level}{0}
}
