\relax 
\providecommand\hyper@newdestlabel[2]{}
\@writefile{toc}{\contentsline {chapter}{\numberline {A}\spacedlowsmallcaps  {Appendix Test}}{44}{appendix.A}}
\@writefile{lof}{\addvspace {10\p@ }}
\@writefile{lot}{\addvspace {10\p@ }}
\@writefile{lol}{\addvspace {10\p@ }}
\@writefile{toc}{\contentsline {section}{\numberline {A.1}Appendix Section Test}{44}{section.A.1}}
\mph@setcol{ii:44}{\mph@nr}
\def\mph@nr{2}
\@writefile{toc}{\contentsline {section}{\numberline {A.2}Another Appendix Section Test}{45}{section.A.2}}
\mph@setcol{ii:45}{\mph@nr}
\@writefile{lot}{\contentsline {table}{\numberline {4.1}{\ignorespaces Autem usu id}}{46}{table.caption.24}}
\newlabel{tab:moreexample}{{4.1}{46}{Autem usu id}{table.caption.24}{}}
\@writefile{lol}{\contentsline {lstlisting}{\numberline {4.1}A floating example}{46}{lstlisting.4.1}}
\mph@setcol{ii:46}{\mph@nr}
\@setckpt{Chapters/Chapter0A}{
\setcounter{page}{47}
\setcounter{equation}{0}
\setcounter{enumi}{2}
\setcounter{enumii}{0}
\setcounter{enumiii}{0}
\setcounter{enumiv}{0}
\setcounter{footnote}{0}
\setcounter{mpfootnote}{0}
\setcounter{part}{4}
\setcounter{chapter}{1}
\setcounter{section}{2}
\setcounter{subsection}{0}
\setcounter{subsubsection}{0}
\setcounter{paragraph}{0}
\setcounter{subparagraph}{0}
\setcounter{figure}{0}
\setcounter{table}{1}
\setcounter{dummy}{7}
\setcounter{lips@count}{18}
\setcounter{NAT@ctr}{0}
\setcounter{parentequation}{0}
\setcounter{ContinuedFloat}{0}
\setcounter{KVtest}{0}
\setcounter{subfigure}{0}
\setcounter{subfigure@save}{0}
\setcounter{lofdepth}{1}
\setcounter{subtable}{0}
\setcounter{subtable@save}{0}
\setcounter{lotdepth}{1}
\setcounter{lstnumber}{5}
\setcounter{Item}{4}
\setcounter{bookmark@seq@number}{48}
\setcounter{listings}{0}
\setcounter{loldepth}{1}
\setcounter{pp@a@footnote}{4}
\setcounter{lstlisting}{1}
\setcounter{section@level}{0}
}
