\relax 
\citation{moravekelfes}
\citation{gpml}
\citation{ijr2012}
\citation{probrob}
\citation{ijr2012}
\@writefile{toc}{\contentsline {section}{\numberline {I}INTRODUCTION}{1}}
\@writefile{toc}{\contentsline {section}{\numberline {II}Related Work}{1}}
\citation{aaai2011}
\citation{iros2013}
\citation{scholk2013}
\bibstyle{IEEEtran}
\bibdata{mybib}
\bibcite{moravekelfes}{1}
\bibcite{gpml}{2}
\bibcite{ijr2012}{3}
\bibcite{probrob}{4}
\bibcite{aaai2011}{5}
\bibcite{iros2013}{6}
\bibcite{scholk2013}{7}
\@writefile{toc}{\contentsline {section}{\numberline {III}Occupancy mapping with high-dimensional kernels}{2}}
\@writefile{toc}{\contentsline {section}{References}{2}}
